<?xml version="1.0"?>
<VTKFile type="Collection" version="0.1">
  <Collection>
    <DataSet timestep="0" part="0" file="u_bypass_markov_T_04000000.vtu" />
    <DataSet timestep="1" part="0" file="u_bypass_markov_T_04000001.vtu" />
    <DataSet timestep="2" part="0" file="u_bypass_markov_T_04000002.vtu" />
    <DataSet timestep="3" part="0" file="u_bypass_markov_T_04000003.vtu" />
    <DataSet timestep="4" part="0" file="u_bypass_markov_T_04000004.vtu" />
    <DataSet timestep="5" part="0" file="u_bypass_markov_T_04000005.vtu" />
    <DataSet timestep="6" part="0" file="u_bypass_markov_T_04000006.vtu" />
    <DataSet timestep="7" part="0" file="u_bypass_markov_T_04000007.vtu" />
    <DataSet timestep="8" part="0" file="u_bypass_markov_T_04000008.vtu" />
    <DataSet timestep="9" part="0" file="u_bypass_markov_T_04000009.vtu" />
    <DataSet timestep="10" part="0" file="u_bypass_markov_T_04000010.vtu" />
    <DataSet timestep="11" part="0" file="u_bypass_markov_T_04000011.vtu" />
    <DataSet timestep="12" part="0" file="u_bypass_markov_T_04000012.vtu" />
    <DataSet timestep="13" part="0" file="u_bypass_markov_T_04000013.vtu" />
    <DataSet timestep="14" part="0" file="u_bypass_markov_T_04000014.vtu" />
    <DataSet timestep="15" part="0" file="u_bypass_markov_T_04000015.vtu" />
    <DataSet timestep="16" part="0" file="u_bypass_markov_T_04000016.vtu" />
    <DataSet timestep="17" part="0" file="u_bypass_markov_T_04000017.vtu" />
    <DataSet timestep="18" part="0" file="u_bypass_markov_T_04000018.vtu" />
    <DataSet timestep="19" part="0" file="u_bypass_markov_T_04000019.vtu" />
    <DataSet timestep="20" part="0" file="u_bypass_markov_T_04000020.vtu" />
  </Collection>
</VTKFile>
