<?xml version="1.0"?>
<VTKFile type="Collection" version="0.1">
  <Collection>
    <DataSet timestep="0" part="0" file="u_bypass_extended_03000000.vtu" />
    <DataSet timestep="1" part="0" file="u_bypass_extended_03000001.vtu" />
    <DataSet timestep="2" part="0" file="u_bypass_extended_03000002.vtu" />
    <DataSet timestep="3" part="0" file="u_bypass_extended_03000003.vtu" />
    <DataSet timestep="4" part="0" file="u_bypass_extended_03000004.vtu" />
    <DataSet timestep="5" part="0" file="u_bypass_extended_03000005.vtu" />
    <DataSet timestep="6" part="0" file="u_bypass_extended_03000006.vtu" />
    <DataSet timestep="7" part="0" file="u_bypass_extended_03000007.vtu" />
    <DataSet timestep="8" part="0" file="u_bypass_extended_03000008.vtu" />
    <DataSet timestep="9" part="0" file="u_bypass_extended_03000009.vtu" />
    <DataSet timestep="10" part="0" file="u_bypass_extended_03000010.vtu" />
    <DataSet timestep="11" part="0" file="u_bypass_extended_03000011.vtu" />
    <DataSet timestep="12" part="0" file="u_bypass_extended_03000012.vtu" />
    <DataSet timestep="13" part="0" file="u_bypass_extended_03000013.vtu" />
    <DataSet timestep="14" part="0" file="u_bypass_extended_03000014.vtu" />
    <DataSet timestep="15" part="0" file="u_bypass_extended_03000015.vtu" />
    <DataSet timestep="16" part="0" file="u_bypass_extended_03000016.vtu" />
    <DataSet timestep="17" part="0" file="u_bypass_extended_03000017.vtu" />
    <DataSet timestep="18" part="0" file="u_bypass_extended_03000018.vtu" />
    <DataSet timestep="19" part="0" file="u_bypass_extended_03000019.vtu" />
    <DataSet timestep="20" part="0" file="u_bypass_extended_03000020.vtu" />
  </Collection>
</VTKFile>
