// Gmsh project created on Mon Jan 16 15:41:02 2017
Point(1) = {0, 0, 0, 0.1};
Point(2) = {0, 0.35, 0, 0.1};
Point(3) = {0, 2, 0, 0.1};
Point(4) = {6, 2, 0, 0.1};
Point(5) = {6, 0.35, 0, 0.1};
Point(6) = {6, 0, 0, 0.1};
Point(7) = {3.1, 0, 0, 0.1};
Point(8) = {2.9, 0, 0, 0.1};
Point(9) = {2.9, 0.35, 0, 0.05};
Point(10) = {3.1, 0.35, 0, 0.05};
Line(1) = {6, 7};
Line(2) = {7, 10};
Line(3) = {10, 9};
Line(4) = {9, 8};
Line(5) = {8, 1};
Line(6) = {1, 2};
Line(7) = {2, 3};
Line(8) = {3, 4};
Line(9) = {4, 5};
Line(10) = {5, 6};
Line(11) = {5, 10};
Line(12) = {9, 2};
Line Loop(13) = {1, 2, -11, 10};
Plane Surface(14) = {13};
Line Loop(15) = {12, -6, -5, -4};
Plane Surface(16) = {15};
Line Loop(17) = {8, 9, 11, 3, 12, 7};
Plane Surface(18) = {17};
Physical Surface(19) = {18, 14, 16};
