cl__1 = 0.1;
cl__2 = 0.05;
Point(1) = {0, 0, 0, 0.1};
Point(2) = {0, 0.35, 0, 0.05};
Point(3) = {0, 2, 0, 0.1};
Point(4) = {6, 2, 0, 0.1};
Point(5) = {6, 0.35, 0, 0.05};
Point(6) = {6, 0, 0, 0.1};
Point(7) = {3.1, 0, 0, 0.1};
Point(8) = {2.9, 0, 0, 0.1};
Point(9) = {2.9, 0.35, 0, 0.05};
Point(10) = {3.1, 0.35, 0, 0.05};
Point(11) = {-1, 0, 0, 0.1};
Point(13) = {-1, 0.35, 0, 0.1};
Point(14) = {7, 0.35, 0, 0.1};
Point(15) = {7, 0, 0, 0.1};
Line(1) = {6, 7};
Line(2) = {7, 10};
Line(3) = {10, 9};
Line(4) = {9, 8};
Line(5) = {8, 1};
Line(7) = {2, 3};
Line(8) = {3, 4};
Line(9) = {4, 5};
Line(11) = {5, 10};
Line(12) = {9, 2};
Line(13) = {11, 1};
Line(14) = {11, 13};
Line(15) = {13, 2};
Line(16) = {5, 14};
Line(17) = {14, 15};
Line(18) = {15, 6};
Line Loop(20) = {8, 9, 11, 3, 12, 7};
Plane Surface(20) = {20};
Line Loop(22) = {12, -15, -14, 13, -5, -4};
Plane Surface(22) = {22};
Line Loop(24) = {11, -2, -1, -18, -17, -16};
Plane Surface(24) = {24};
