cl__1 = 0.1;
cl__2 = 0.05;
Point(1) = {0, 0, 0, 0.1};
Point(2) = {0, 0.35, 0, 0.05};
Point(3) = {0, 2, 0, 0.1};
Point(4) = {6, 2, 0, 0.1};
Point(5) = {6, 0.35, 0, 0.05};
Point(6) = {6, 0, 0, 0.1};
Point(7) = {3.1, 0, 0, 0.1};
Point(8) = {2.9, 0, 0, 0.1};
Point(9) = {2.9, 0.35, 0, 0.05};
Point(10) = {3.1, 0.35, 0, 0.05};
Point(11) = {2, 0.35, 0, 0.05};
Point(12) = {2, 0.45, 0, 0.05};
Point(13) = {4, 0.35, 0, 0.05};
Point(14) = {4, 0.45, 0, 0.05};
Line(1) = {1, 8};
Line(2) = {8, 9};
Line(3) = {9, 11};
Line(4) = {11, 12};
Line(5) = {12, 14};
Line(6) = {14, 13};
Line(7) = {13, 10};
Line(8) = {10, 7};
Line(9) = {7, 6};
Line(10) = {6, 5};
Line(11) = {5, 13};
Line(12) = {5, 4};
Line(13) = {4, 3};
Line(14) = {3, 2};
Line(15) = {2, 1};
Line(16) = {2, 11};
Line Loop(18) = {13, 14, 16, 4, 5, 6, -11, 12};
Plane Surface(18) = {18};
Line Loop(20) = {16, -3, -2, -1, -15};
Plane Surface(20) = {20};
Line Loop(22) = {11, 7, 8, 9, 10};
Plane Surface(22) = {22};
Physical Surface(23) = {18};
Physical Surface(24) = {20, 22};
