// Gmsh project created on Tue Sep 13 16:10:10 2016
Point(1) = {0, 0, 0, 0.1};
Point(2) = {2, 0, 0, 0.1};
Point(3) = {2, 1, 0, 0.1};
Point(4) = {0, 1, 0, 0.1};
Point(5) = {0.99, 0, 0, 0.5};
Point(6) = {1.01, 0, 0, 0.5};
Point(7) = {1.01, 0.2, 0, 1};
Point(8) = {0.99, 0.2, 0, 1};
Line(1) = {1, 5};
Line(2) = {5, 8};
Line(3) = {8, 7};
Line(4) = {7, 6};
Line(5) = {6, 2};
Line(6) = {2, 3};
Line(7) = {3, 4};
Line(8) = {4, 1};
Line Loop(9) = {8, 1, 2, 3, 4, 5, 6, 7};
Plane Surface(10) = {9};
Coherence;
Coherence;
Coherence;
Physical Line(11) = {7, 8, 1, 2, 3, 4, 5, 6};
Physical Surface(12) = {10};
Point(9) = {0, 0.2, 0, 1.0};
Point(10) = {2.0, 0.2, 0, 1.0};
Line(13) = {9, 8};
Line(14) = {7, 10};
