cl__1 = 0.1;
Point(1) = {0, 0, 0, 0.1};
Point(2) = {0, 1, 0, 0.1};
Point(3) = {2, 1, 0, 0.1};
Point(4) = {2, 0, 0, 0.1};
Point(5) = {0.99, 0, 0, 0.1};
Point(6) = {0.99, 0.2, 0, 0.1};
Point(7) = {1.01, 0.2, 0, 0.1};
Point(8) = {1.01, 0, 0, 0.1};
Point(9) = {0, 0.2, 0, 0.1};
Point(10) = {2, 0.2, 0, 0.1};
Spline(1) = {1, 5};
Line(2) = {5, 6};
Line(3) = {6, 7};
Line(4) = {7, 8};
Line(5) = {8, 4};
Line(6) = {4, 10};
Line(7) = {10, 3};
Line(8) = {3, 2};
Line(9) = {2, 9};
Line(10) = {9, 1};
Line(11) = {9, 6};
Line(12) = {7, 10};
Line Loop(14) = {1, 2, -11, 10};
Plane Surface(14) = {14};
Line Loop(16) = {5, 6, -12, 4};
Plane Surface(16) = {16};
Line Loop(18) = {8, 9, 11, 3, 12, 7};
Plane Surface(18) = {18};
Physical Surface(19) = {18};
Physical Surface(20) = {14};
Physical Surface(21) = {16};
