$MeshFormat
2.2 0 8
$EndMeshFormat
$Nodes
905
1 0 0.3 0
2 0 0.7 0
3 1 0.7 0
4 1 0.3 0
5 1 0.3249999999999608 0
6 1 0.3499999999999149 0
7 1 0.374999999999849 0
8 1 0.3999999999997831 0
9 1 0.4249999999997126 0
10 1 0.4499999999996421 0
11 1 0.4749999999995715 0
12 1 0.499999999999501 0
13 1 0.524999999999666 0
14 1 0.549999999999796 0
15 1 0.5749999999996713 0
16 1 0.5999999999997396 0
17 1 0.6249999999997362 0
18 1 0.6499999999997719 0
19 1 0.6749999999998928 0
20 0 0.6750000000000858 0
21 0 0.6500000000001219 0
22 0 0.625000000000183 0
23 0 0.6000000000002439 0
24 0 0.5750000000003158 0
25 0 0.5500000000003877 0
26 0 0.5250000000004595 0
27 0 0.5000000000005315 0
28 0 0.4750000000004648 0
29 0 0.4500000000003366 0
30 0 0.4250000000003257 0
31 0 0.4000000000002657 0
32 0 0.3750000000002246 0
33 0 0.3500000000001899 0
34 0 0.3250000000000949 0
35 0.02499999999995297 0.3 0
36 0.04999999999989927 0.3 0
37 0.07499999999985263 0.3 0
38 0.09999999999981467 0.3 0
39 0.1249999999997765 0.3 0
40 0.1499999999997036 0.3 0
41 0.1749999999996308 0.3 0
42 0.1999999999995579 0.3 0
43 0.224999999999485 0.3 0
44 0.2499999999994121 0.3 0
45 0.2749999999993393 0.3 0
46 0.2999999999992664 0.3 0
47 0.3249999999991935 0.3 0
48 0.3499999999991207 0.3 0
49 0.3749999999990478 0.3 0
50 0.3999999999989749 0.3 0
51 0.4249999999989048 0.3 0
52 0.4499999999988346 0.3 0
53 0.4749999999987644 0.3 0
54 0.4999999999986943 0.3 0
55 0.5249999999987575 0.3 0
56 0.5499999999988205 0.3 0
57 0.5749999999988837 0.3 0
58 0.5999999999989468 0.3 0
59 0.6249999999990127 0.3 0
60 0.6499999999990784 0.3 0
61 0.6749999999991443 0.3 0
62 0.69999999999921 0.3 0
63 0.7249999999992759 0.3 0
64 0.7499999999993416 0.3 0
65 0.7749999999994075 0.3 0
66 0.7999999999994734 0.3 0
67 0.8249999999995392 0.3 0
68 0.8499999999996051 0.3 0
69 0.8749999999996709 0.3 0
70 0.8999999999997368 0.3 0
71 0.9249999999998026 0.3 0
72 0.9499999999998684 0.3 0
73 0.9749999999999343 0.3 0
74 0.02499999999995297 0.7 0
75 0.04999999999989927 0.7 0
76 0.07499999999985263 0.7 0
77 0.09999999999981467 0.7 0
78 0.1249999999997765 0.7 0
79 0.1499999999997036 0.7 0
80 0.1749999999996308 0.7 0
81 0.1999999999995579 0.7 0
82 0.224999999999485 0.7 0
83 0.2499999999994121 0.7 0
84 0.2749999999993393 0.7 0
85 0.2999999999992664 0.7 0
86 0.3249999999991935 0.7 0
87 0.3499999999991207 0.7 0
88 0.3749999999990478 0.7 0
89 0.3999999999989749 0.7 0
90 0.4249999999989048 0.7 0
91 0.4499999999988346 0.7 0
92 0.4749999999987644 0.7 0
93 0.4999999999986943 0.7 0
94 0.5249999999987575 0.7 0
95 0.5499999999988205 0.7 0
96 0.5749999999988837 0.7 0
97 0.5999999999989468 0.7 0
98 0.6249999999990127 0.7 0
99 0.6499999999990784 0.7 0
100 0.6749999999991443 0.7 0
101 0.69999999999921 0.7 0
102 0.7249999999992759 0.7 0
103 0.7499999999993416 0.7 0
104 0.7749999999994075 0.7 0
105 0.7999999999994734 0.7 0
106 0.8249999999995392 0.7 0
107 0.8499999999996051 0.7 0
108 0.8749999999996709 0.7 0
109 0.8999999999997368 0.7 0
110 0.9249999999998026 0.7 0
111 0.9499999999998684 0.7 0
112 0.9749999999999343 0.7 0
113 0.3483966296346545 0.490972081465911 0
114 0.6599030376676716 0.5019828298507991 0
115 0.8212108267466861 0.534009699561198 0
116 0.1794825509619747 0.4660893543967523 0
117 0.4999999999990996 0.4562499999999842 0
118 0.4541666666657692 0.578124999999916 0
119 0.2570368379198846 0.5948984401315508 0
120 0.7427901944422401 0.4192787069075512 0
121 0.1150718967115302 0.5810596070615404 0
122 0.8849281032884708 0.4189403929383906 0
123 0.5716016649243221 0.5873284007660253 0
124 0.2731481481476362 0.4129629629628515 0
125 0.7268518518513767 0.5870370370369076 0
126 0.4074012494261546 0.4094979808040513 0
127 0.593880733971057 0.4116495205530117 0
128 0.3508897502499452 0.5801974315714015 0
129 0.8974999999997517 0.5974999999997515 0
130 0.1024999999997643 0.4024999999997531 0
131 0.9141600541460075 0.5014540159840957 0
132 0.08589048358761751 0.4985532036922165 0
133 0.1890807548197361 0.387235352145812 0
134 0.8109192451795545 0.6127646478539511 0
135 0.6516713108883054 0.6152696535307464 0
136 0.2654007656661114 0.510301271484882 0
137 0.7456346234709387 0.5025150258276302 0
138 0.6697577161638084 0.382917039266369 0
139 0.5674674148274806 0.5039510063026367 0
140 0.4176592446629266 0.5021489276915923 0
141 0.4738065671702205 0.367675341961184 0
142 0.8158301769324331 0.3763398789409521 0
143 0.1841698230667747 0.6236601210595152 0
144 0.3401800756156988 0.3736442253637126 0
145 0.06619318181826138 0.6338068181817583 0
146 0.9338068181818004 0.3661931818180372 0
147 0.5093900783449645 0.6269129548670811 0
148 0.8185174312261485 0.4556024427391536 0
149 0.1811753929856488 0.5457603329710762 0
150 0.544000532152167 0.3573363952779067 0
151 0.05244047619012064 0.3524404761903351 0
152 0.947559523809405 0.6475595238094061 0
153 0.8054596225895139 0.6563823239269755 0
154 0.7554596225893823 0.6563823239269755 0
155 0.2445403774095013 0.343617676072906 0
156 0.194540377409647 0.343617676072906 0
157 0.7579150884658216 0.338169939470476 0
158 0.8079150884659532 0.338169939470476 0
159 0.1920849115331663 0.6618300605297576 0
160 0.2420849115330206 0.6618300605297576 0
161 0.7688855485154655 0.5999008424454293 0
162 0.7134259259252933 0.6435185185184538 0
163 0.2865740740734513 0.3564814814814258 0
164 0.2311144514836861 0.4000991575543318 0
165 0.2206033304933297 0.6092792805955329 0
166 0.2785184189595755 0.6474492200657753 0
167 0.721395097220725 0.3596393534537756 0
168 0.7793101856873366 0.3978092929242516 0
169 0.5337337074132902 0.4801005031513105 0
170 0.5108170407466249 0.5410380031512763 0
171 0.4770833333324344 0.5171874999999501 0
172 0.3068986976503829 0.5006366764753966 0
173 0.3496431899422998 0.5355847565186562 0
174 0.3081452579580283 0.5452493515281418 0
175 0.261218801792998 0.5525998558082164 0
176 0.303963294084915 0.5875479358514761 0
177 0.9570800270730038 0.4507270079919394 0
178 0.8995440787172392 0.4601972044612431 0
179 0.9424640516442354 0.4094701964690869 0
180 0.04294524179380876 0.5492766018462302 0
181 0.1004811901495739 0.5398064053768784 0
182 0.05753594835576512 0.5905298035308921 0
183 0.427083333332372 0.6390624999999579 0
184 0.4817783725053669 0.6025189774334985 0
185 0.4546950391719697 0.6634564774335405 0
186 0.5695345398759013 0.545639703534331 0
187 0.5128841657950456 0.5827267003829706 0
188 0.3754448751244601 0.6400987157857008 0
189 0.4025282084578572 0.5791612157856587 0
190 0.9570800270730038 0.5007270079917983 0
191 0.04294524179380876 0.499276601846374 0
192 0.4359129556643479 0.540136963845754 0
193 0.4588296223310131 0.4791994638457883 0
194 0.3254448751246058 0.6400987157857008 0
195 0.66483037691574 0.4424499345585841 0
196 0.7062739553030243 0.4010978730869601 0
197 0.7013466160549559 0.4606307683791752 0
198 0.3107723888911453 0.4519675222143813 0
199 0.3066641118816675 0.393303594163282 0
200 0.3442883526251767 0.4323081534148118 0
201 0.05124999999988217 0.4012500000000094 0
202 0.09419524179369093 0.4505266018459848 0
203 0.04294524179380876 0.4492766018462411 0
204 0.9487499999998759 0.5987499999997455 0
205 0.9058300270728796 0.5494770079919236 0
206 0.9570800270730038 0.5507270079919176 0
207 0.5046950391718295 0.6634564774335405 0
208 0.3842744974564359 0.5411731796314969 0
209 0.3830279371487905 0.4965605045787517 0
210 0.3737906625209267 0.3915711030838819 0
211 0.3778989395304045 0.4502350311349811 0
212 0.6848788580815093 0.3414585196331845 0
213 0.6557871742779885 0.5586262416907728 0
214 0.6116364879063138 0.6012990271483858 0
215 0.6157523512959968 0.5446556153084122 0
216 0.6933774447595241 0.5445099334438533 0
217 0.6892615813698411 0.6011533452838269 0
218 0.7442124089565894 0.4608968663675907 0
219 0.7027688305693052 0.5022489278392146 0
220 0.09063253926489581 0.6074332126216493 0
221 0.03309659090913069 0.6169034090910011 0
222 0.9093674607351356 0.3925667873782139 0
223 0.9669034090909002 0.3830965909089102 0
224 0.1445403774097754 0.343617676072906 0
225 0.1457903774097502 0.3948676760727825 0
226 0.1012499999997895 0.3512499999998765 0
227 0.8554596225896456 0.6563823239269755 0
228 0.8542096225896532 0.6051323239268513 0
229 0.8987499999997443 0.6487499999998757 0
230 0.6268918858193643 0.4568161752019054 0
231 0.6318192250674327 0.3972832799096904 0
232 0.5546950391719556 0.6634564774335405 0
233 0.5404958716346433 0.6071206778165532 0
234 0.5858008324616344 0.6436642003830126 0
235 0.9169034090907686 0.3330965909090186 0
236 0.8748184975571167 0.3712665303794946 0
237 0.8579150884660849 0.338169939470476 0
238 0.08309659090903802 0.6669034090908792 0
239 0.1251815024425181 0.6287334696206368 0
240 0.1420849115332947 0.6618300605297576 0
241 0.8503791401104519 0.3976401359396713 0
242 0.1496208598891525 0.6023598640605278 0
243 0.5220002660756333 0.4067931976389455 0
244 0.568940633061612 0.3844929579154592 0
245 0.5469403669850783 0.433949760276498 0
246 0.6348788580813776 0.3414585196331845 0
247 0.596940366985002 0.3558247602765059 0
248 0.4369032835845977 0.333837670980592 0
249 0.4406039082981876 0.3885866613826177 0
250 0.4037006247125647 0.3547489904020256 0
251 0.6258356554436262 0.6576348267653731 0
252 0.2263153495548055 0.4395261586798019 0
253 0.2692744569068738 0.4616321172238668 0
254 0.2224416583140431 0.4881953129408171 0
255 0.7362432376611576 0.5447760314322689 0
256 0.6758356554437577 0.6576348267653731 0
257 0.1842816528908554 0.4266623532712821 0
258 0.8160650359631203 0.5733871737075746 0
259 0.7740313392990315 0.5605233682990528 0
260 0.613685226247576 0.5029669180767179 0
261 0.3200900378074826 0.3368221126818562 0
262 0.4869032835846601 0.4119626709805841 0
263 0.5089035496611938 0.3625058686195454 0
264 0.7834227251088124 0.5182623626944141 0
265 0.4869032835844574 0.333837670980592 0
266 0.5806740743992689 0.4578002634278242 0
267 0.4125302470445406 0.4558234542478218 0
268 0.4537006247126271 0.4328739904020177 0
269 0.1326865172747961 0.4823212790444844 0
270 0.1409912754808695 0.4342946771982527 0
271 0.8676854404463468 0.5177318577726469 0
272 0.8593554133732189 0.5657548497804747 0
273 0.3700900378073368 0.3368221126818562 0
274 0.8198641289864173 0.4948060711501758 0
275 0.866338742686078 0.4785282293616246 0
276 0.8517227672573097 0.4372714178387721 0
277 0.1803289719738118 0.5059248436839142 0
278 0.1335329382866332 0.5221567683316464 0
279 0.1481236448485895 0.5634099700163082 0
280 0.572000266075557 0.3286681976389534 0
281 0.03309659090913069 0.6669034090908792 0
282 0.9669034090909002 0.3330965909090186 0
283 0.9737797619047025 0.6237797619045728 0
284 0.9225297619045784 0.6225297619045788 0
285 0.9237797619045709 0.673779761904703 0
286 0.0774702380949425 0.3774702380950441 0
287 0.07622023809496765 0.3262202380951675 0
288 0.02622023809506032 0.3762202380953004 0
289 0.2232880793258801 0.5280308022279792 0
290 0.02622023809506032 0.3262202380951675 0
291 0.9737797619047025 0.673779761904703 0
292 0.5220002660754306 0.3286681976389534 0
293 0.2191061154527667 0.5703293865513135 0
294 0.7820760273485436 0.4790587342833919 0
295 0.7806538128341943 0.4374405748233524 0
296 0.1826726080262118 0.5847102270152957 0
297 0.8171738040792909 0.4159711608400528 0
298 0.8081894338845341 0.6345734858904633 0
299 0.780459622589448 0.6563823239269755 0
300 0.7831894338844684 0.6345734858904633 0
301 0.7777298112944278 0.6781911619634877 0
302 0.7527298112943619 0.6781911619634877 0
303 0.8027298112944936 0.6781911619634877 0
304 0.7277298112942961 0.6781911619634877 0
305 0.2222701887045296 0.321808838036453 0
306 0.1972701887046024 0.321808838036453 0
307 0.2472701887044567 0.321808838036453 0
308 0.2195403774095741 0.343617676072906 0
309 0.2722701887043839 0.321808838036453 0
310 0.2168105661146187 0.365426514109359 0
311 0.1918105661146915 0.365426514109359 0
312 0.7868726326991273 0.357254909205714 0
313 0.7829150884658873 0.338169939470476 0
314 0.8118726326991932 0.357254909205714 0
315 0.7539575442325817 0.319084969735238 0
316 0.7789575442326474 0.319084969735238 0
317 0.7289575442325158 0.319084969735238 0
318 0.8039575442327133 0.319084969735238 0
319 0.1960424557663621 0.6809150302648788 0
320 0.2210424557662892 0.6809150302648788 0
321 0.2170849115330934 0.6618300605297576 0
322 0.2460424557662164 0.6809150302648788 0
323 0.1881273672999705 0.6427450907946364 0
324 0.2131273672998977 0.6427450907946364 0
325 0.2710424557661435 0.6809150302648788 0
326 0.7478687001834211 0.5934689397411684 0
327 0.7411557372203794 0.6217096804819415 0
328 0.720138888888335 0.6152777777776807 0
329 0.762172585552424 0.6281415831862024 0
330 0.7344427742573378 0.6499504212227146 0
331 0.7899023968475101 0.6063327451496903 0
332 0.7067129629622517 0.6717592592592269 0
333 0.2378274144465937 0.3718584168136189 0
334 0.2100976031517111 0.3936672548500719 0
335 0.2655572257414763 0.3500495787771659 0
336 0.2588442627785687 0.3782903195178788 0
337 0.2932870370363588 0.3282407407407129 0
338 0.2798611111105437 0.3847222222221386 0
339 0.2521312998156612 0.4065310602585916 0
340 0.2023865767800522 0.6164697008275241 0
341 0.2313441210131751 0.6355546705626453 0
342 0.2495608747264526 0.6283642503306541 0
343 0.2603016652462981 0.6546396402977664 0
344 0.2388200842066072 0.6020888603635419 0
345 0.2677776284397301 0.6211738300986631 0
346 0.289259209479421 0.6737246100328876 0
347 0.7320926458314826 0.3894590301806634 0
348 0.7503526414540308 0.3787243231890136 0
349 0.7610501900647884 0.4085439999159014 0
350 0.7396550928432732 0.3489046464621258 0
351 0.7686126370765791 0.3679896161973638 0
352 0.7106975486099676 0.3298196767268878 0
353 0.7975701813098848 0.3870745859326018 0
354 0.5168668537061949 0.4681752515756473 0
355 0.5054085203728623 0.4986440015756303 0
356 0.488541666665767 0.4867187499999671 0
357 0.5222753740799575 0.5105692531512933 0
358 0.4939501870395296 0.5291127515756131 0
359 0.5506005611203855 0.4920257547269736 0
360 0.5391422277870528 0.5224945047269565 0
361 0.4824918537061971 0.5595815015755961 0
362 0.4656249999991018 0.547656249999933 0
363 0.2861497316582471 0.5054689739801392 0
364 0.3075219778042056 0.5229430140017692 0
365 0.2867730118120698 0.5277753115065119 0
366 0.3282709437963414 0.5181107164970264 0
367 0.328894223950164 0.540417054023399 0
368 0.3276476636425187 0.4958043789706538 0
369 0.3490199097884771 0.5132784189922837 0
370 0.3502664700961226 0.5578910940450288 0
371 0.3295175041039867 0.5627233915497716 0
372 0.2591278198564413 0.5737491479698835 0
373 0.2825910479389565 0.5700738958298462 0
374 0.2805000660023998 0.5912231879915135 0
375 0.2846820298755132 0.5489246036681791 0
376 0.3060542760214716 0.566398643689809 0
377 0.2633097837295547 0.5314505636465492 0
378 0.3274265221674301 0.5838726837114387 0
379 0.9785400135365019 0.4253635039958613 0
380 0.9497720393586195 0.4300986022305132 0
381 0.9712320258221177 0.404735098234435 0
382 0.9283120528951214 0.4554621062265913 0
383 0.9210040651807373 0.434833700465165 0
384 0.9356200406095057 0.4760905119880176 0
385 0.9068520664316233 0.4808256102226694 0
386 0.8922360910028551 0.4395687986998169 0
387 0.9136960774663532 0.4142052947037388 0
388 0.02147262089690438 0.574638300923237 0
389 0.05024059507478694 0.5699032026885611 0
390 0.02876797417788256 0.595264901765568 0
391 0.07171321597169132 0.5445415036115543 0
392 0.0790085692526695 0.5651681044538852 0
393 0.06441786269071313 0.5239149027692234 0
394 0.09318583686859569 0.5191798045345475 0
395 0.1077765434305521 0.5604330062192093 0
396 0.08630392253364767 0.5857947052962162 0
397 0.4135416666656735 0.6695312499999789 0
398 0.4408891862521709 0.6512594887167492 0
399 0.4273475195854723 0.6817282387167702 0
400 0.4544308529188694 0.6207907387167282 0
401 0.4682367058386683 0.6329877274335195 0
402 0.4406249999990706 0.608593749999937 0
403 0.4679725195855681 0.5903219887167073 0
404 0.4955842254251657 0.6147159661502898 0
405 0.4820425587584671 0.6451847161503108 0
406 0.5118506032708352 0.5618823517671234 0
407 0.4835254162304074 0.5804258501914432 0
408 0.5401757903112632 0.5433388533428036 0
409 0.5412093528354734 0.5641832019586508 0
410 0.5685009773516909 0.5247953549184838 0
411 0.5705681024001117 0.5664840521501782 0
412 0.5422429153596838 0.585027550574498 0
413 0.3877224375617175 0.6700493578928504 0
414 0.4012641042284161 0.6395806078928293 0
415 0.3889865417911587 0.6096299657856797 0
416 0.4148057708951146 0.6091118578928083 0
417 0.3631673126872026 0.6101480736785512 0
418 0.3767089793539012 0.57967932367853 0
419 0.4283474375618132 0.5786431078927874 0
420 0.9785400135365019 0.4503635039957907 0
421 0.9785400135365019 0.4753635039957201 0
422 0.9570800270730038 0.4757270079918688 0
423 0.9785400135365019 0.5003635039956496 0
424 0.9356200406095057 0.501090511987947 0
425 0.02147262089690438 0.549638300923309 0
426 0.02147262089690438 0.5246383009233808 0
427 0.04294524179380876 0.5242766018463021 0
428 0.02147262089690438 0.4996383009234527 0
429 0.06441786269071313 0.4989149027692952 0
430 0.4679564778317238 0.4981934819228692 0
431 0.4794148111650564 0.4677247319228862 0
432 0.4564981444983912 0.528662231922852 0
433 0.4473712889976805 0.5096682138457711 0
434 0.4450398111650585 0.5591309819228349 0
435 0.4267861001636373 0.5211429457686731 0
436 0.4382444334969698 0.4906741957686903 0
437 0.3019816470420907 0.643773967925738 0
438 0.3127224375619361 0.6700493578928504 0
439 0.2912408565222452 0.6174985779586257 0
440 0.3147040846047604 0.6138233258185884 0
441 0.3381673126872755 0.6101480736785512 0
442 0.6623667072917058 0.4722163822046916 0
443 0.6830884964853479 0.4515403514688796 0
444 0.6806248268613138 0.4813067991149871 0
445 0.6855521661093822 0.4217739038227721 0
446 0.7038102856789901 0.4308643207330676 0
447 0.6672940465397742 0.4126834869124765 0
448 0.6880158357334163 0.3920074561766645 0
449 0.7245320748726323 0.4101882899972557 0
450 0.7220684052485979 0.4399547376433632 0
451 0.3295845092628999 0.4714698018401462 0
452 0.327530370758161 0.4421378378145965 0
453 0.3463424911299156 0.4616401174403614 0
454 0.3087182503864064 0.4226355581888317 0
455 0.325476232253422 0.4128058737890469 0
456 0.2919602685193907 0.4324652425886164 0
457 0.2899061300146518 0.4031332785630668 0
458 0.3234220937486831 0.3834739097634973 0
459 0.3422342141204378 0.4029761893892622 0
460 0.02562499999994108 0.4006250000001376 0
461 0.04709762089684547 0.4252633009231253 0
462 0.02147262089690438 0.4246383009232534 0
463 0.07272262089678655 0.4258883009229971 0
464 0.06857024179374985 0.4499016018461129 0
465 0.07687499999982325 0.4018749999998812 0
466 0.09834762089672763 0.4265133009228689 0
467 0.09004286269065423 0.4745399027691006 0
468 0.06441786269071313 0.4739149027692288 0
469 0.9743749999999379 0.5993749999997426 0
470 0.9529150135364398 0.5747385039958316 0
471 0.9785400135365019 0.5753635039958287 0
472 0.9272900135363777 0.5741135039958345 0
473 0.9314550270729417 0.5501020079919205 0
474 0.9231249999998138 0.5981249999997484 0
475 0.9016650135363157 0.5734885039958375 0
476 0.9099950406094436 0.5254655119880096 0
477 0.9356200406095057 0.5260905119880066 0
478 0.4523475195854022 0.6817282387167702 0
479 0.4796950391718996 0.6634564774335405 0
480 0.4773475195853321 0.6817282387167702 0
481 0.507042558758397 0.6451847161503108 0
482 0.5023475195852618 0.6817282387167702 0
483 0.4192205820611026 0.5596490898157064 0
484 0.3934013529571466 0.5601671977085778 0
485 0.4100937265603919 0.5406550717386255 0
486 0.3675821238531906 0.5606853056014491 0
487 0.4009668710596813 0.5216610536615446 0
488 0.3657122833917225 0.4937662930223313 0
489 0.3663355635455452 0.516072630548704 0
490 0.3836512173026132 0.5188668421051243 0
491 0.3669588436993679 0.5383789680750766 0
492 0.4003435909058586 0.499354716135172 0
493 0.3610936460777906 0.4412715922748964 0
494 0.3631477845825295 0.4706035563004461 0
495 0.3590395075730517 0.4119396282493468 0
496 0.3758448010256656 0.4209030671094315 0
497 0.3569853690683128 0.3826076642237972 0
498 0.3905959559735407 0.4005345419439665 0
499 0.3926500944782796 0.4298665059695162 0
500 0.02147262089690438 0.4746383009233553 0
501 0.02147262089690438 0.4496383009232888 0
502 0.04294524179380876 0.4742766018463075 0
503 0.9785400135365019 0.5253635039957971 0
504 0.9785400135365019 0.5503635039958568 0
505 0.9570800270730038 0.5257270079918579 0
506 0.7031369776511172 0.3505489365434801 0
507 0.6924394290403597 0.3207292598165923 0
508 0.7138345262618746 0.3803686132703679 0
509 0.6955764066922667 0.3712781963600723 0
510 0.6773182871226588 0.3621877794497768 0
511 0.6578451059728301 0.530304535770786 0
512 0.6357697627869927 0.5516409284995925 0
513 0.6378276944818342 0.5233192225796057 0
514 0.6337118310921511 0.5799626344195793 0
515 0.6136944196011553 0.5729773212283991 0
516 0.6537292425831469 0.5869479476107595 0
517 0.6316538993973095 0.6082843403395661 0
518 0.591619076415318 0.5943137139572056 0
519 0.5936770081101594 0.5659920080372187 0
520 0.6766402412135979 0.5232463816473263 0
521 0.6745823095187563 0.551568087567313 0
522 0.6913195130646825 0.5728316393638402 0
523 0.6725243778239147 0.5798897934872999 0
524 0.7101146483054503 0.5657734852403804 0
525 0.7080567166106089 0.5940951911603672 0
526 0.6704664461290732 0.6082114994072867 0
527 0.7020577233121306 0.4814398481091949 0
528 0.6813359341184884 0.5021158788450069 0
529 0.7227795125057725 0.4607638173733829 0
530 0.7234906197629473 0.4815728971034027 0
531 0.7435013016994148 0.440087786637571 0
532 0.744923516213764 0.4817059460976104 0
533 0.724201727020122 0.5023819768334223 0
534 0.04531626963244791 0.6037166063109466 0
535 0.01654829545456534 0.6084517045456225 0
536 0.07408424381033046 0.5989815080762707 0
537 0.06186456508701325 0.6121683108563252 0
538 0.102852217988213 0.5942464098415948 0
539 0.07841286054157859 0.6206200154017039 0
540 0.04964488636369603 0.6253551136363797 0
541 0.9546837303675678 0.3962833936889986 0
542 0.9834517045454501 0.3915482954543467 0
543 0.9259157561896856 0.4010184919236504 0
544 0.938135434913018 0.387831689143562 0
545 0.8971477820118032 0.4057535901583023 0
546 0.921587139458468 0.3793799845981256 0
547 0.9503551136363504 0.3746448863634737 0
548 0.122270188704795 0.321808838036453 0
549 0.1228951887047825 0.3474338380363913 0
550 0.1006249999998021 0.3256249999999382 0
551 0.1451653774097628 0.3692426760728442 0
552 0.1235201887047699 0.3730588380363295 0
553 0.1668105661147558 0.365426514109359 0
554 0.1674355661147432 0.3910515141092973 0
555 0.1241451887047573 0.3986838380362678 0
556 0.1018749999997769 0.3768749999998148 0
557 0.8777298112946912 0.6781911619634877 0
558 0.8771048112946949 0.6525661619634255 0
559 0.8993749999997405 0.6743749999999378 0
560 0.8548346225896494 0.6307573239269134 0
561 0.8764798112946988 0.6269411619633636 0
562 0.8331894338846 0.6345734858904633 0
563 0.8325644338846039 0.6089484858904013 0
564 0.8758548112947024 0.6013161619633014 0
565 0.898124999999748 0.6231249999998136 0
566 0.1472701887047395 0.321808838036453 0
567 0.1722701887046753 0.321808838036453 0
568 0.1695403774097112 0.343617676072906 0
569 0.8277298112945595 0.6781911619634877 0
570 0.8304596225895797 0.6563823239269755 0
571 0.8527298112946253 0.6781911619634877 0
572 0.6433974617435179 0.4793995025263523 0
573 0.6458611313675522 0.4496330548802447 0
574 0.6293555554433985 0.4270497275557979 0
575 0.6483248009915863 0.4198666072341372 0
576 0.6103863098952107 0.4342328478774586 0
577 0.6128499795192448 0.4044664002313511 0
578 0.6507884706156206 0.3901001595880297 0
579 0.5773475195854512 0.6817282387167702 0
580 0.570247935816795 0.6535603389082766 0
581 0.5929004162302907 0.6718321001915063 0
582 0.5475954554032995 0.6352885776250469 0
583 0.5631483520481388 0.6253924390997829 0
584 0.5320425587584601 0.6451847161503108 0
585 0.5249429749898039 0.6170168163418172 0
586 0.5560487682794827 0.5972245392912893 0
587 0.5787012486929782 0.615496300574519 0
588 0.9084517045452527 0.3165482954545093 0
589 0.8874092487784268 0.3356332651897473 0
590 0.8789575442329108 0.319084969735238 0
591 0.8958609533239427 0.3521815606442567 0
592 0.8663667930116008 0.3547182349249853 0
593 0.9253551136362845 0.3496448863635279 0
594 0.9043126578694586 0.368729856098766 0
595 0.845324337244775 0.3738032046602233 0
596 0.836872632699259 0.357254909205714 0
597 0.09154829545442635 0.6834517045454396 0
598 0.1125907512211664 0.6643667348103184 0
599 0.1210424557665547 0.6809150302648788 0
600 0.104139046675778 0.647818439355758 0
601 0.1336332069879064 0.6452817650751972 0
602 0.0746448863636497 0.6503551136363188 0
603 0.09568734213038971 0.6312701439011976 0
604 0.1546756627546464 0.626196795340076 0
605 0.1631273673000347 0.6427450907946364 0
606 0.4973312691502062 0.5926228389082345 0
607 0.5266900187148444 0.5949236890997619 0
608 0.5111371220700051 0.6048198276250258 0
609 0.8676536216994614 0.408290264439031 0
610 0.8798733004227938 0.3951034616589426 0
611 0.8625988188337843 0.384453333159583 0
612 0.8920929791461262 0.3819166588788543 0
613 0.8331046585214426 0.3869900074403117 0
614 0.1323463783003413 0.5917097355610341 0
615 0.1201266995770241 0.6048965383410885 0
616 0.1374011811658353 0.6155466668405822 0
617 0.1079070208537069 0.618083341121143 0
618 0.1668953414779636 0.6130099925600214 0
619 0.3377224375618633 0.6700493578928504 0
620 0.3504448751245329 0.6400987157857008 0
621 0.3627224375617903 0.6700493578928504 0
622 0.5110001330373665 0.4315215988194648 0
623 0.5344703165303558 0.4203714789577218 0
624 0.523470183492089 0.4450998801382411 0
625 0.5454704495686227 0.3956430777772024 0
626 0.5579405000233452 0.4092213590959786 0
627 0.5330003991139002 0.3820647964584261 0
628 0.5564705826068895 0.370914676596683 0
629 0.5814106835163345 0.3980712392342355 0
630 0.5704105504780677 0.4227996404147549 0
631 0.6174394290401621 0.3207292598165923 0
632 0.6159096125331898 0.3486416399548452 0
633 0.5984701834919743 0.327912380138253 0
634 0.6333490415744052 0.3693708997714374 0
635 0.6143797960262174 0.3765540200930981 0
636 0.652318287122593 0.3621877794497768 0
637 0.5954105504780295 0.3837371404147588 0
638 0.4184516417917863 0.316918835490296 0
639 0.4203019541485812 0.3442933306913089 0
640 0.4018503123557698 0.3273744952010128 0
641 0.4387535959413926 0.3612121661816048 0
642 0.4221522665053762 0.3716678258923216 0
643 0.4553549253774091 0.350756506470888 0
644 0.4572052377342041 0.3781310016719008 0
645 0.4240025788621711 0.3990423210933345 0
646 0.4055509370693597 0.3821234856030384 0
647 0.6058182439526303 0.6506495135741929 0
648 0.6129178277212866 0.6788174133826865 0
649 0.598718660183974 0.6224816137656992 0
650 0.6187360716749699 0.6294669269568794 0
651 0.6387534831659658 0.6364522401480597 0
652 0.2028989502583901 0.4528077565382771 0
653 0.2243785039344243 0.4638607358103095 0
654 0.2009621046380089 0.4771423336687847 0
655 0.2477949032308396 0.4505791379518344 0
656 0.2458580576104584 0.4749137150823419 0
657 0.2497317488512208 0.4262445608213267 0
658 0.271211302527255 0.4372975400933591 0
659 0.2673376112864926 0.4859666943543744 0
660 0.2439212119900772 0.4992482922128496 0
661 0.6980731376644147 0.523379430641534 0
662 0.7195060341152314 0.5235124796357418 0
663 0.7148103412103408 0.5446429824380612 0
664 0.7409389305660481 0.5236455286299495 0
665 0.7315475447562672 0.5659065342345883 0
666 0.527347519585325 0.6817282387167702 0
667 0.5296950391718925 0.6634564774335405 0
668 0.5523475195853881 0.6817282387167702 0
669 0.6879178277214839 0.6788174133826865 0
670 0.6946307906845255 0.6505766726419134 0
671 0.6825486184067994 0.6293940860246 0
672 0.7013437536475672 0.6223359319011403 0
673 0.6637534831660316 0.6364522401480597 0
674 0.1818821019264151 0.4463758538340172 0
675 0.2052985012228304 0.433094255975542 0
676 0.2076980521872708 0.4133807554128069 0
677 0.2287149005192458 0.4198126581170668 0
678 0.1866812038552958 0.4069488527085471 0
679 0.8186379313549033 0.5536984366343863 0
680 0.7950481876310759 0.5669552710033137 0
681 0.7976210830228587 0.5472665339301255 0
682 0.7924752922392929 0.586644008076502 0
683 0.7714584439072485 0.5802121053722411 0
684 0.8134921405713373 0.5930759107807628 0
685 0.7504415955752041 0.5737802026679801 0
686 0.6147187887717864 0.5238112666925651 0
687 0.6367941319576238 0.5024748739637586 0
688 0.5926434455859491 0.5451476594213716 0
689 0.5916098830617387 0.5243033108055244 0
690 0.5905763205375283 0.5034589621896772 0
691 0.3100450189033745 0.3184110563409281 0
692 0.3033320559404669 0.346651797081641 0
693 0.313377074844575 0.3650628534225692 0
694 0.2966190929775594 0.3748925378223539 0
695 0.3301350567115907 0.3552331690227844 0
696 0.4934516417918798 0.4341063354902842 0
697 0.5044517748301467 0.4093779343097648 0
698 0.4979034166229269 0.3872342698000648 0
699 0.5154519078684136 0.3846495331292454 0
700 0.4803549253774403 0.3898190064708841 0
701 0.4913550584157071 0.3650906052903647 0
702 0.5264520409066804 0.359921131948726 0
703 0.3088355432707641 0.4763020993448889 0
704 0.2880865772786284 0.4811343968496317 0
705 0.2900234228990096 0.456799819719124 0
706 0.7787270322039219 0.5393928654967335 0
707 0.8023167759277492 0.526136031127806 0
708 0.7551372884800945 0.5526496998656609 0
709 0.759832981384985 0.5315191970633415 0
710 0.7645286742898756 0.5103886942610221 0
711 0.8289575442327791 0.319084969735238 0
712 0.853957544232845 0.319084969735238 0
713 0.832915088466019 0.338169939470476 0
714 0.1460424557664992 0.6809150302648788 0
715 0.1670849115332305 0.6618300605297576 0
716 0.171042455766435 0.6809150302648788 0
717 0.642439429040228 0.3207292598165923 0
718 0.6674394290402939 0.3207292598165923 0
719 0.6598788580814434 0.3414585196331845 0
720 0.4434516417917161 0.316918835490296 0
721 0.468451641791646 0.316918835490296 0
722 0.4619032835845276 0.333837670980592 0
723 0.4934516417915759 0.316918835490296 0
724 0.4803549253773389 0.350756506470888 0
725 0.5403370371991842 0.4570251317139042 0
726 0.5638072206921736 0.4458750118521611 0
727 0.5572038909062795 0.4689503832895673 0
728 0.5872774041851629 0.434724891990418 0
729 0.5740707446133748 0.4808756348652304 0
730 0.6202885560334701 0.4798915466393117 0
731 0.5971796503234225 0.4803835907522711 0
732 0.6037829801093166 0.4573082193148648 0
733 0.3804634383395975 0.4733977678568664 0
734 0.3952145932874725 0.4530292426914014 0
735 0.3977790920966656 0.4761919794132867 0
736 0.4099657482353476 0.4326607175259365 0
737 0.4150947458537336 0.478986190969707 0
738 0.4562651235218201 0.456036727123903 0
739 0.4768503123558634 0.444561995201001 0
740 0.4356799346877769 0.467511459046805 0
741 0.4331154358785839 0.4443487223249197 0
742 0.4305509370693908 0.4211859856030345 0
743 0.1560845341183854 0.4742053167206183 0
744 0.1368388963778328 0.4583079781213685 0
745 0.1602369132214221 0.4501920157975025 0
746 0.1134408795342435 0.4664239404452346 0
747 0.1175932586372802 0.4424106395221187 0
748 0.1092885004312068 0.4904372413683504 0
749 0.1217456377403169 0.4183973385990029 0
750 0.8444481335965164 0.5258707786669224 0
751 0.8635204269097828 0.5417433537765608 0
752 0.8402831200599525 0.5498822746708364 0
753 0.8867577337596132 0.5336044328822852 0
754 0.8825927202230492 0.5576159288861992 0
755 0.8909227472961772 0.5095929368783713 0
756 0.8784277066864853 0.5816274248901131 0
757 0.3868953312599508 0.3457855515419409 0
758 0.3850450189031559 0.3184110563409281 0
759 0.3887456436167457 0.3731600467429538 0
760 0.3719403501641318 0.3641966078828691 0
761 0.3551350567115178 0.3552331690227844 0
762 0.8377102246681696 0.5695710117440247 0
763 0.856782517981436 0.585443586853663 0
764 0.8351373292763867 0.589259748817213 0
765 0.1626364641858625 0.4304785152347674 0
766 0.1433908264453099 0.4145811766355176 0
767 0.1650360151503028 0.4107650146720323 0
768 0.8205374778665517 0.5144078853556869 0
769 0.843774784716382 0.5062689644614113 0
770 0.8431014358362476 0.4866671502559002 0
771 0.8670120915662124 0.4981300435671357 0
772 0.8191907801062829 0.4752042569446647 0
773 0.8424280869561133 0.4670653360503891 0
774 0.8902493984160428 0.4899911226728602 0
775 0.8756334229872744 0.4487343111500076 0
776 0.8683254352728902 0.4281059053885814 0
777 0.8829414107016587 0.4693627169114339 0
778 0.8590307549716938 0.4578998236001984 0
779 0.8351200992417291 0.4464369302889629 0
780 0.1799057614678933 0.4860070990403332 0
781 0.1565077446243039 0.4941230613641993 0
782 0.1569309551302225 0.5140408060077803 0
783 0.1331097277807147 0.5022390236880654 0
784 0.1807521824797303 0.5258425883274952 0
785 0.157354165636141 0.5339585506513613 0
786 0.1097117109371253 0.5103549860119314 0
787 0.1243024174990817 0.5516081876965933 0
788 0.1315977707800599 0.5722347885389243 0
789 0.1170070642181035 0.5309815868542624 0
790 0.1408282915676113 0.5427833691739773 0
791 0.1646495189171192 0.5545851514936921 0
792 0.4703019541486436 0.422418330691301 0
793 0.4471522665054073 0.4107303258923177 0
794 0.4637535959414238 0.4002746661816009 0
795 0.5844703165302795 0.3422464789577296 0
796 0.586000133037252 0.3143340988194767 0
797 0.582940500023307 0.3701588590959826 0
798 0.5704704495685845 0.3565805777772063 0
799 0.558000399113862 0.3430022964584301 0
800 0.6379178277213523 0.6788174133826865 0
801 0.6508356554436919 0.6576348267653731 0
802 0.6629178277214181 0.6788174133826865 0
803 0.3350450189033016 0.3184110563409281 0
804 0.3600450189032288 0.3184110563409281 0
805 0.3450900378074097 0.3368221126818562 0
806 0.01654829545456534 0.6834517045454396 0
807 0.04154829545451498 0.6834517045454396 0
808 0.05809659090908435 0.6669034090908792 0
809 0.06654829545446865 0.6834517045454396 0
810 0.04964488636369603 0.6503551136363188 0
811 0.01654829545456534 0.6584517045455005 0
812 0.01654829545456534 0.6334517045455614 0
813 0.03309659090913069 0.6419034090909401 0
814 0.9834517045454501 0.3165482954545093 0
815 0.9584517045453843 0.3165482954545093 0
816 0.9419034090908345 0.3330965909090186 0
817 0.9334517045453186 0.3165482954545093 0
818 0.9503551136363504 0.3496448863635279 0
819 0.9834517045454501 0.3415482954544667 0
820 0.9834517045454501 0.3665482954544126 0
821 0.9669034090909002 0.3580965909089644 0
822 0.9868898809523512 0.6118898809521562 0
823 0.9612648809522892 0.6112648809521593 0
824 0.9481547619046404 0.6231547619045759 0
825 0.9356398809522271 0.6106398809521622 0
826 0.9606696428570538 0.6356696428569895 0
827 0.9350446428569916 0.6350446428569925 0
828 0.9100148809521651 0.6100148809521651 0
829 0.9112648809521575 0.6612648809522894 0
830 0.9118898809521538 0.6868898809523515 0
831 0.9106398809521613 0.6356398809522272 0
832 0.9231547619045746 0.6481547619046408 0
833 0.9356696428569879 0.6606696428570545 0
834 0.08873511904737857 0.338735119047522 0
835 0.08811011904739116 0.3131101190475838 0
836 0.089360119047366 0.3643601190474603 0
837 0.07684523809495508 0.3518452380951058 0
838 0.08998511904735342 0.3899851190473986 0
839 0.06495535714253156 0.3649553571426896 0
840 0.06433035714254415 0.3393303571427513 0
841 0.01311011904753016 0.388110119047783 0
842 0.03873511904747125 0.3887351190476549 0
843 0.05184523809500141 0.3768452380951722 0
844 0.06436011904741233 0.3893601190475268 0
845 0.03933035714259048 0.3643303571428177 0
846 0.2013853151439274 0.4970600783123656 0
847 0.2228648688199616 0.5081130575843982 0
848 0.2018085256498459 0.5169778229559467 0
849 0.2443444224959958 0.5191660368564306 0
850 0.2022317361557645 0.5368955675995277 0
851 0.01311011904753016 0.3131101190475838 0
852 0.01311011904753016 0.3381101190476787 0
853 0.02622023809506032 0.3512202380952339 0
854 0.01311011904753016 0.3631101190477452 0
855 0.03933035714259048 0.3393303571427513 0
856 0.9868898809523512 0.6868898809523515 0
857 0.9868898809523512 0.6618898809522374 0
858 0.9737797619047025 0.6487797619046379 0
859 0.9868898809523512 0.6368898809521724 0
860 0.9606696428570538 0.6606696428570545 0
861 0.9618898809522854 0.6868898809523515 0
862 0.9368898809522197 0.6868898809523515 0
863 0.9487797619046368 0.673779761904703 0
864 0.0381101190474798 0.3131101190475838 0
865 0.06311011904743347 0.3131101190475838 0
866 0.05122023809501398 0.3262202380951675 0
867 0.5360001330371256 0.3143340988194767 0
868 0.5110001330370624 0.3143340988194767 0
869 0.5610001330371888 0.3143340988194767 0
870 0.5470002660754938 0.3286681976389534 0
871 0.5330003991137988 0.3430022964584301 0
872 0.2380714766863257 0.5826139133414321 0
873 0.2401624586228824 0.5614646211797649 0
874 0.2211970973893234 0.5491800943896463 0
875 0.242253440559439 0.5403153290180978 0
876 0.2001407542192078 0.5580448597611949 0
877 0.8016434270476148 0.5065342169222949 0
878 0.782749376228678 0.498660548488903 0
879 0.8009700781674804 0.4869324027167838 0
880 0.7638553254097411 0.4907868800555111 0
881 0.8002967292873461 0.4673305885112727 0
882 0.7617220036382173 0.4283596408654518 0
883 0.7624331108953919 0.4491687205954715 0
884 0.781364920091369 0.4582496545533722 0
885 0.7631442181525665 0.4699778003254913 0
886 0.7995856220301714 0.446521508781253 0
887 0.504451774829944 0.3312529343097727 0
888 0.5154519078683122 0.3455870331292494 0
889 0.4979034166228256 0.3481717698000687 0
890 0.2198547229730482 0.5898043335734232 0
891 0.2016379692597707 0.5969947538054143 0
892 0.2008893617394892 0.5775198067833046 0
893 0.1834212155464933 0.6041851740374055 0
894 0.1819240005059303 0.5652352799931859 0
895 0.148872252368871 0.582884917038418 0
896 0.1653981264374006 0.574060098515802 0
897 0.1661467339576821 0.5935350455379118 0
898 0.8510509536838808 0.4174557768892218 0
899 0.8344482856683002 0.4266212893394125 0
900 0.8337764720948714 0.4068056483898621 0
901 0.8178456176527197 0.4357868017896032 0
902 0.8165019905058619 0.3961555198905025 0
903 0.7799819992607655 0.417624933873802 0
904 0.7982419948833137 0.4068902268821522 0
905 0.7989138084567426 0.4267058678317026 0
$EndNodes
$Elements
1696
1 2 2 18 15 134 298 300
2 2 2 18 15 298 299 300
3 2 2 18 15 298 153 299
4 2 2 18 15 300 299 154
5 2 2 18 15 153 301 299
6 2 2 18 15 301 302 299
7 2 2 18 15 301 103 302
8 2 2 18 15 299 302 154
9 2 2 18 15 153 303 301
10 2 2 18 15 303 104 301
11 2 2 18 15 303 105 104
12 2 2 18 15 301 104 103
13 2 2 18 15 154 302 304
14 2 2 18 15 302 102 304
15 2 2 18 15 302 103 102
16 2 2 18 15 304 102 101
17 2 2 18 15 42 43 306
18 2 2 18 15 43 305 306
19 2 2 18 15 43 44 305
20 2 2 18 15 306 305 156
21 2 2 18 15 44 307 305
22 2 2 18 15 307 308 305
23 2 2 18 15 307 155 308
24 2 2 18 15 305 308 156
25 2 2 18 15 44 45 307
26 2 2 18 15 45 309 307
27 2 2 18 15 45 46 309
28 2 2 18 15 307 309 155
29 2 2 18 15 156 308 311
30 2 2 18 15 308 310 311
31 2 2 18 15 308 155 310
32 2 2 18 15 311 310 133
33 2 2 18 15 142 312 314
34 2 2 18 15 312 313 314
35 2 2 18 15 312 157 313
36 2 2 18 15 314 313 158
37 2 2 18 15 157 315 313
38 2 2 18 15 315 316 313
39 2 2 18 15 315 64 316
40 2 2 18 15 313 316 158
41 2 2 18 15 157 317 315
42 2 2 18 15 317 63 315
43 2 2 18 15 317 62 63
44 2 2 18 15 315 63 64
45 2 2 18 15 158 316 318
46 2 2 18 15 316 65 318
47 2 2 18 15 316 64 65
48 2 2 18 15 318 65 66
49 2 2 18 15 81 319 82
50 2 2 18 15 319 320 82
51 2 2 18 15 319 159 320
52 2 2 18 15 82 320 83
53 2 2 18 15 159 321 320
54 2 2 18 15 321 322 320
55 2 2 18 15 321 160 322
56 2 2 18 15 320 322 83
57 2 2 18 15 159 323 321
58 2 2 18 15 323 324 321
59 2 2 18 15 323 143 324
60 2 2 18 15 321 324 160
61 2 2 18 15 83 322 84
62 2 2 18 15 322 325 84
63 2 2 18 15 322 160 325
64 2 2 18 15 84 325 85
65 2 2 18 15 125 326 328
66 2 2 18 15 326 327 328
67 2 2 18 15 326 161 327
68 2 2 18 15 328 327 162
69 2 2 18 15 161 329 327
70 2 2 18 15 329 330 327
71 2 2 18 15 329 154 330
72 2 2 18 15 327 330 162
73 2 2 18 15 161 331 329
74 2 2 18 15 331 300 329
75 2 2 18 15 331 134 300
76 2 2 18 15 329 300 154
77 2 2 18 15 162 330 332
78 2 2 18 15 330 304 332
79 2 2 18 15 330 154 304
80 2 2 18 15 332 304 101
81 2 2 18 15 133 310 334
82 2 2 18 15 310 333 334
83 2 2 18 15 310 155 333
84 2 2 18 15 334 333 164
85 2 2 18 15 155 335 333
86 2 2 18 15 335 336 333
87 2 2 18 15 335 163 336
88 2 2 18 15 333 336 164
89 2 2 18 15 155 309 335
90 2 2 18 15 309 337 335
91 2 2 18 15 309 46 337
92 2 2 18 15 335 337 163
93 2 2 18 15 164 336 339
94 2 2 18 15 336 338 339
95 2 2 18 15 336 163 338
96 2 2 18 15 339 338 124
97 2 2 18 15 143 340 324
98 2 2 18 15 340 341 324
99 2 2 18 15 340 165 341
100 2 2 18 15 324 341 160
101 2 2 18 15 165 342 341
102 2 2 18 15 342 343 341
103 2 2 18 15 342 166 343
104 2 2 18 15 341 343 160
105 2 2 18 15 165 344 342
106 2 2 18 15 344 345 342
107 2 2 18 15 344 119 345
108 2 2 18 15 342 345 166
109 2 2 18 15 160 343 325
110 2 2 18 15 343 346 325
111 2 2 18 15 343 166 346
112 2 2 18 15 325 346 85
113 2 2 18 15 120 347 349
114 2 2 18 15 347 348 349
115 2 2 18 15 347 167 348
116 2 2 18 15 349 348 168
117 2 2 18 15 167 350 348
118 2 2 18 15 350 351 348
119 2 2 18 15 350 157 351
120 2 2 18 15 348 351 168
121 2 2 18 15 167 352 350
122 2 2 18 15 352 317 350
123 2 2 18 15 352 62 317
124 2 2 18 15 350 317 157
125 2 2 18 15 168 351 353
126 2 2 18 15 351 312 353
127 2 2 18 15 351 157 312
128 2 2 18 15 353 312 142
129 2 2 18 15 117 354 356
130 2 2 18 15 354 355 356
131 2 2 18 15 354 169 355
132 2 2 18 15 356 355 171
133 2 2 18 15 169 357 355
134 2 2 18 15 357 358 355
135 2 2 18 15 357 170 358
136 2 2 18 15 355 358 171
137 2 2 18 15 169 359 357
138 2 2 18 15 359 360 357
139 2 2 18 15 359 139 360
140 2 2 18 15 357 360 170
141 2 2 18 15 171 358 362
142 2 2 18 15 358 361 362
143 2 2 18 15 358 170 361
144 2 2 18 15 362 361 118
145 2 2 18 15 136 363 365
146 2 2 18 15 363 364 365
147 2 2 18 15 363 172 364
148 2 2 18 15 365 364 174
149 2 2 18 15 172 366 364
150 2 2 18 15 366 367 364
151 2 2 18 15 366 173 367
152 2 2 18 15 364 367 174
153 2 2 18 15 172 368 366
154 2 2 18 15 368 369 366
155 2 2 18 15 368 113 369
156 2 2 18 15 366 369 173
157 2 2 18 15 174 367 371
158 2 2 18 15 367 370 371
159 2 2 18 15 367 173 370
160 2 2 18 15 371 370 128
161 2 2 18 15 119 372 374
162 2 2 18 15 372 373 374
163 2 2 18 15 372 175 373
164 2 2 18 15 374 373 176
165 2 2 18 15 175 375 373
166 2 2 18 15 375 376 373
167 2 2 18 15 375 174 376
168 2 2 18 15 373 376 176
169 2 2 18 15 175 377 375
170 2 2 18 15 377 365 375
171 2 2 18 15 377 136 365
172 2 2 18 15 375 365 174
173 2 2 18 15 176 376 378
174 2 2 18 15 376 371 378
175 2 2 18 15 376 174 371
176 2 2 18 15 378 371 128
177 2 2 18 15 8 379 381
178 2 2 18 15 379 380 381
179 2 2 18 15 379 177 380
180 2 2 18 15 381 380 179
181 2 2 18 15 177 382 380
182 2 2 18 15 382 383 380
183 2 2 18 15 382 178 383
184 2 2 18 15 380 383 179
185 2 2 18 15 177 384 382
186 2 2 18 15 384 385 382
187 2 2 18 15 384 131 385
188 2 2 18 15 382 385 178
189 2 2 18 15 179 383 387
190 2 2 18 15 383 386 387
191 2 2 18 15 383 178 386
192 2 2 18 15 387 386 122
193 2 2 18 15 23 388 390
194 2 2 18 15 388 389 390
195 2 2 18 15 388 180 389
196 2 2 18 15 390 389 182
197 2 2 18 15 180 391 389
198 2 2 18 15 391 392 389
199 2 2 18 15 391 181 392
200 2 2 18 15 389 392 182
201 2 2 18 15 180 393 391
202 2 2 18 15 393 394 391
203 2 2 18 15 393 132 394
204 2 2 18 15 391 394 181
205 2 2 18 15 182 392 396
206 2 2 18 15 392 395 396
207 2 2 18 15 392 181 395
208 2 2 18 15 396 395 121
209 2 2 18 15 89 397 399
210 2 2 18 15 397 398 399
211 2 2 18 15 397 183 398
212 2 2 18 15 399 398 185
213 2 2 18 15 183 400 398
214 2 2 18 15 400 401 398
215 2 2 18 15 400 184 401
216 2 2 18 15 398 401 185
217 2 2 18 15 183 402 400
218 2 2 18 15 402 403 400
219 2 2 18 15 402 118 403
220 2 2 18 15 400 403 184
221 2 2 18 15 185 401 405
222 2 2 18 15 401 404 405
223 2 2 18 15 401 184 404
224 2 2 18 15 405 404 147
225 2 2 18 15 118 361 407
226 2 2 18 15 361 406 407
227 2 2 18 15 361 170 406
228 2 2 18 15 407 406 187
229 2 2 18 15 170 408 406
230 2 2 18 15 408 409 406
231 2 2 18 15 408 186 409
232 2 2 18 15 406 409 187
233 2 2 18 15 170 360 408
234 2 2 18 15 360 410 408
235 2 2 18 15 360 139 410
236 2 2 18 15 408 410 186
237 2 2 18 15 187 409 412
238 2 2 18 15 409 411 412
239 2 2 18 15 409 186 411
240 2 2 18 15 412 411 123
241 2 2 18 15 89 413 397
242 2 2 18 15 413 414 397
243 2 2 18 15 413 188 414
244 2 2 18 15 397 414 183
245 2 2 18 15 188 415 414
246 2 2 18 15 415 416 414
247 2 2 18 15 415 189 416
248 2 2 18 15 414 416 183
249 2 2 18 15 188 417 415
250 2 2 18 15 417 418 415
251 2 2 18 15 417 128 418
252 2 2 18 15 415 418 189
253 2 2 18 15 183 416 402
254 2 2 18 15 416 419 402
255 2 2 18 15 416 189 419
256 2 2 18 15 402 419 118
257 2 2 18 15 8 9 379
258 2 2 18 15 9 420 379
259 2 2 18 15 9 10 420
260 2 2 18 15 379 420 177
261 2 2 18 15 10 421 420
262 2 2 18 15 421 422 420
263 2 2 18 15 421 190 422
264 2 2 18 15 420 422 177
265 2 2 18 15 10 11 421
266 2 2 18 15 11 423 421
267 2 2 18 15 11 12 423
268 2 2 18 15 421 423 190
269 2 2 18 15 177 422 384
270 2 2 18 15 422 424 384
271 2 2 18 15 422 190 424
272 2 2 18 15 384 424 131
273 2 2 18 15 23 24 388
274 2 2 18 15 24 425 388
275 2 2 18 15 24 25 425
276 2 2 18 15 388 425 180
277 2 2 18 15 25 426 425
278 2 2 18 15 426 427 425
279 2 2 18 15 426 191 427
280 2 2 18 15 425 427 180
281 2 2 18 15 25 26 426
282 2 2 18 15 26 428 426
283 2 2 18 15 26 27 428
284 2 2 18 15 426 428 191
285 2 2 18 15 180 427 393
286 2 2 18 15 427 429 393
287 2 2 18 15 427 191 429
288 2 2 18 15 393 429 132
289 2 2 18 15 117 356 431
290 2 2 18 15 356 430 431
291 2 2 18 15 356 171 430
292 2 2 18 15 431 430 193
293 2 2 18 15 171 432 430
294 2 2 18 15 432 433 430
295 2 2 18 15 432 192 433
296 2 2 18 15 430 433 193
297 2 2 18 15 171 362 432
298 2 2 18 15 362 434 432
299 2 2 18 15 362 118 434
300 2 2 18 15 432 434 192
301 2 2 18 15 193 433 436
302 2 2 18 15 433 435 436
303 2 2 18 15 433 192 435
304 2 2 18 15 436 435 140
305 2 2 18 15 85 346 438
306 2 2 18 15 346 437 438
307 2 2 18 15 346 166 437
308 2 2 18 15 438 437 194
309 2 2 18 15 166 439 437
310 2 2 18 15 439 440 437
311 2 2 18 15 439 176 440
312 2 2 18 15 437 440 194
313 2 2 18 15 166 345 439
314 2 2 18 15 345 374 439
315 2 2 18 15 345 119 374
316 2 2 18 15 439 374 176
317 2 2 18 15 194 440 441
318 2 2 18 15 440 378 441
319 2 2 18 15 440 176 378
320 2 2 18 15 441 378 128
321 2 2 18 15 114 442 444
322 2 2 18 15 442 443 444
323 2 2 18 15 442 195 443
324 2 2 18 15 444 443 197
325 2 2 18 15 195 445 443
326 2 2 18 15 445 446 443
327 2 2 18 15 445 196 446
328 2 2 18 15 443 446 197
329 2 2 18 15 195 447 445
330 2 2 18 15 447 448 445
331 2 2 18 15 447 138 448
332 2 2 18 15 445 448 196
333 2 2 18 15 197 446 450
334 2 2 18 15 446 449 450
335 2 2 18 15 446 196 449
336 2 2 18 15 450 449 120
337 2 2 18 15 113 451 453
338 2 2 18 15 451 452 453
339 2 2 18 15 451 198 452
340 2 2 18 15 453 452 200
341 2 2 18 15 198 454 452
342 2 2 18 15 454 455 452
343 2 2 18 15 454 199 455
344 2 2 18 15 452 455 200
345 2 2 18 15 198 456 454
346 2 2 18 15 456 457 454
347 2 2 18 15 456 124 457
348 2 2 18 15 454 457 199
349 2 2 18 15 200 455 459
350 2 2 18 15 455 458 459
351 2 2 18 15 455 199 458
352 2 2 18 15 459 458 144
353 2 2 18 15 31 460 462
354 2 2 18 15 460 461 462
355 2 2 18 15 460 201 461
356 2 2 18 15 462 461 203
357 2 2 18 15 201 463 461
358 2 2 18 15 463 464 461
359 2 2 18 15 463 202 464
360 2 2 18 15 461 464 203
361 2 2 18 15 201 465 463
362 2 2 18 15 465 466 463
363 2 2 18 15 465 130 466
364 2 2 18 15 463 466 202
365 2 2 18 15 203 464 468
366 2 2 18 15 464 467 468
367 2 2 18 15 464 202 467
368 2 2 18 15 468 467 132
369 2 2 18 15 16 469 471
370 2 2 18 15 469 470 471
371 2 2 18 15 469 204 470
372 2 2 18 15 471 470 206
373 2 2 18 15 204 472 470
374 2 2 18 15 472 473 470
375 2 2 18 15 472 205 473
376 2 2 18 15 470 473 206
377 2 2 18 15 204 474 472
378 2 2 18 15 474 475 472
379 2 2 18 15 474 129 475
380 2 2 18 15 472 475 205
381 2 2 18 15 206 473 477
382 2 2 18 15 473 476 477
383 2 2 18 15 473 205 476
384 2 2 18 15 477 476 131
385 2 2 18 15 89 399 90
386 2 2 18 15 399 478 90
387 2 2 18 15 399 185 478
388 2 2 18 15 90 478 91
389 2 2 18 15 185 479 478
390 2 2 18 15 479 480 478
391 2 2 18 15 479 207 480
392 2 2 18 15 478 480 91
393 2 2 18 15 185 405 479
394 2 2 18 15 405 481 479
395 2 2 18 15 405 147 481
396 2 2 18 15 479 481 207
397 2 2 18 15 91 480 92
398 2 2 18 15 480 482 92
399 2 2 18 15 480 207 482
400 2 2 18 15 92 482 93
401 2 2 18 15 118 419 434
402 2 2 18 15 419 483 434
403 2 2 18 15 419 189 483
404 2 2 18 15 434 483 192
405 2 2 18 15 189 484 483
406 2 2 18 15 484 485 483
407 2 2 18 15 484 208 485
408 2 2 18 15 483 485 192
409 2 2 18 15 189 418 484
410 2 2 18 15 418 486 484
411 2 2 18 15 418 128 486
412 2 2 18 15 484 486 208
413 2 2 18 15 192 485 435
414 2 2 18 15 485 487 435
415 2 2 18 15 485 208 487
416 2 2 18 15 435 487 140
417 2 2 18 15 113 488 369
418 2 2 18 15 488 489 369
419 2 2 18 15 488 209 489
420 2 2 18 15 369 489 173
421 2 2 18 15 209 490 489
422 2 2 18 15 490 491 489
423 2 2 18 15 490 208 491
424 2 2 18 15 489 491 173
425 2 2 18 15 209 492 490
426 2 2 18 15 492 487 490
427 2 2 18 15 492 140 487
428 2 2 18 15 490 487 208
429 2 2 18 15 173 491 370
430 2 2 18 15 491 486 370
431 2 2 18 15 491 208 486
432 2 2 18 15 370 486 128
433 2 2 18 15 113 453 494
434 2 2 18 15 453 493 494
435 2 2 18 15 453 200 493
436 2 2 18 15 494 493 211
437 2 2 18 15 200 495 493
438 2 2 18 15 495 496 493
439 2 2 18 15 495 210 496
440 2 2 18 15 493 496 211
441 2 2 18 15 200 459 495
442 2 2 18 15 459 497 495
443 2 2 18 15 459 144 497
444 2 2 18 15 495 497 210
445 2 2 18 15 211 496 499
446 2 2 18 15 496 498 499
447 2 2 18 15 496 210 498
448 2 2 18 15 499 498 126
449 2 2 18 15 27 28 428
450 2 2 18 15 28 500 428
451 2 2 18 15 28 29 500
452 2 2 18 15 428 500 191
453 2 2 18 15 29 501 500
454 2 2 18 15 501 502 500
455 2 2 18 15 501 203 502
456 2 2 18 15 500 502 191
457 2 2 18 15 29 30 501
458 2 2 18 15 30 462 501
459 2 2 18 15 30 31 462
460 2 2 18 15 501 462 203
461 2 2 18 15 191 502 429
462 2 2 18 15 502 468 429
463 2 2 18 15 502 203 468
464 2 2 18 15 429 468 132
465 2 2 18 15 12 13 423
466 2 2 18 15 13 503 423
467 2 2 18 15 13 14 503
468 2 2 18 15 423 503 190
469 2 2 18 15 14 504 503
470 2 2 18 15 504 505 503
471 2 2 18 15 504 206 505
472 2 2 18 15 503 505 190
473 2 2 18 15 14 15 504
474 2 2 18 15 15 471 504
475 2 2 18 15 15 16 471
476 2 2 18 15 504 471 206
477 2 2 18 15 190 505 424
478 2 2 18 15 505 477 424
479 2 2 18 15 505 206 477
480 2 2 18 15 424 477 131
481 2 2 18 15 62 352 507
482 2 2 18 15 352 506 507
483 2 2 18 15 352 167 506
484 2 2 18 15 507 506 212
485 2 2 18 15 167 508 506
486 2 2 18 15 508 509 506
487 2 2 18 15 508 196 509
488 2 2 18 15 506 509 212
489 2 2 18 15 167 347 508
490 2 2 18 15 347 449 508
491 2 2 18 15 347 120 449
492 2 2 18 15 508 449 196
493 2 2 18 15 212 509 510
494 2 2 18 15 509 448 510
495 2 2 18 15 509 196 448
496 2 2 18 15 510 448 138
497 2 2 18 15 114 511 513
498 2 2 18 15 511 512 513
499 2 2 18 15 511 213 512
500 2 2 18 15 513 512 215
501 2 2 18 15 213 514 512
502 2 2 18 15 514 515 512
503 2 2 18 15 514 214 515
504 2 2 18 15 512 515 215
505 2 2 18 15 213 516 514
506 2 2 18 15 516 517 514
507 2 2 18 15 516 135 517
508 2 2 18 15 514 517 214
509 2 2 18 15 215 515 519
510 2 2 18 15 515 518 519
511 2 2 18 15 515 214 518
512 2 2 18 15 519 518 123
513 2 2 18 15 114 520 511
514 2 2 18 15 520 521 511
515 2 2 18 15 520 216 521
516 2 2 18 15 511 521 213
517 2 2 18 15 216 522 521
518 2 2 18 15 522 523 521
519 2 2 18 15 522 217 523
520 2 2 18 15 521 523 213
521 2 2 18 15 216 524 522
522 2 2 18 15 524 525 522
523 2 2 18 15 524 125 525
524 2 2 18 15 522 525 217
525 2 2 18 15 213 523 516
526 2 2 18 15 523 526 516
527 2 2 18 15 523 217 526
528 2 2 18 15 516 526 135
529 2 2 18 15 114 444 528
530 2 2 18 15 444 527 528
531 2 2 18 15 444 197 527
532 2 2 18 15 528 527 219
533 2 2 18 15 197 529 527
534 2 2 18 15 529 530 527
535 2 2 18 15 529 218 530
536 2 2 18 15 527 530 219
537 2 2 18 15 197 450 529
538 2 2 18 15 450 531 529
539 2 2 18 15 450 120 531
540 2 2 18 15 529 531 218
541 2 2 18 15 219 530 533
542 2 2 18 15 530 532 533
543 2 2 18 15 530 218 532
544 2 2 18 15 533 532 137
545 2 2 18 15 23 390 535
546 2 2 18 15 390 534 535
547 2 2 18 15 390 182 534
548 2 2 18 15 535 534 221
549 2 2 18 15 182 536 534
550 2 2 18 15 536 537 534
551 2 2 18 15 536 220 537
552 2 2 18 15 534 537 221
553 2 2 18 15 182 396 536
554 2 2 18 15 396 538 536
555 2 2 18 15 396 121 538
556 2 2 18 15 536 538 220
557 2 2 18 15 221 537 540
558 2 2 18 15 537 539 540
559 2 2 18 15 537 220 539
560 2 2 18 15 540 539 145
561 2 2 18 15 8 381 542
562 2 2 18 15 381 541 542
563 2 2 18 15 381 179 541
564 2 2 18 15 542 541 223
565 2 2 18 15 179 543 541
566 2 2 18 15 543 544 541
567 2 2 18 15 543 222 544
568 2 2 18 15 541 544 223
569 2 2 18 15 179 387 543
570 2 2 18 15 387 545 543
571 2 2 18 15 387 122 545
572 2 2 18 15 543 545 222
573 2 2 18 15 223 544 547
574 2 2 18 15 544 546 547
575 2 2 18 15 544 222 546
576 2 2 18 15 547 546 146
577 2 2 18 15 38 548 550
578 2 2 18 15 548 549 550
579 2 2 18 15 548 224 549
580 2 2 18 15 550 549 226
581 2 2 18 15 224 551 549
582 2 2 18 15 551 552 549
583 2 2 18 15 551 225 552
584 2 2 18 15 549 552 226
585 2 2 18 15 224 553 551
586 2 2 18 15 553 554 551
587 2 2 18 15 553 133 554
588 2 2 18 15 551 554 225
589 2 2 18 15 226 552 556
590 2 2 18 15 552 555 556
591 2 2 18 15 552 225 555
592 2 2 18 15 556 555 130
593 2 2 18 15 109 557 559
594 2 2 18 15 557 558 559
595 2 2 18 15 557 227 558
596 2 2 18 15 559 558 229
597 2 2 18 15 227 560 558
598 2 2 18 15 560 561 558
599 2 2 18 15 560 228 561
600 2 2 18 15 558 561 229
601 2 2 18 15 227 562 560
602 2 2 18 15 562 563 560
603 2 2 18 15 562 134 563
604 2 2 18 15 560 563 228
605 2 2 18 15 229 561 565
606 2 2 18 15 561 564 565
607 2 2 18 15 561 228 564
608 2 2 18 15 565 564 129
609 2 2 18 15 38 39 548
610 2 2 18 15 39 566 548
611 2 2 18 15 39 40 566
612 2 2 18 15 548 566 224
613 2 2 18 15 40 567 566
614 2 2 18 15 567 568 566
615 2 2 18 15 567 156 568
616 2 2 18 15 566 568 224
617 2 2 18 15 40 41 567
618 2 2 18 15 41 306 567
619 2 2 18 15 41 42 306
620 2 2 18 15 567 306 156
621 2 2 18 15 224 568 553
622 2 2 18 15 568 311 553
623 2 2 18 15 568 156 311
624 2 2 18 15 553 311 133
625 2 2 18 15 105 303 106
626 2 2 18 15 303 569 106
627 2 2 18 15 303 153 569
628 2 2 18 15 106 569 107
629 2 2 18 15 153 570 569
630 2 2 18 15 570 571 569
631 2 2 18 15 570 227 571
632 2 2 18 15 569 571 107
633 2 2 18 15 153 298 570
634 2 2 18 15 298 562 570
635 2 2 18 15 298 134 562
636 2 2 18 15 570 562 227
637 2 2 18 15 107 571 108
638 2 2 18 15 571 557 108
639 2 2 18 15 571 227 557
640 2 2 18 15 108 557 109
641 2 2 18 15 114 572 442
642 2 2 18 15 572 573 442
643 2 2 18 15 572 230 573
644 2 2 18 15 442 573 195
645 2 2 18 15 230 574 573
646 2 2 18 15 574 575 573
647 2 2 18 15 574 231 575
648 2 2 18 15 573 575 195
649 2 2 18 15 230 576 574
650 2 2 18 15 576 577 574
651 2 2 18 15 576 127 577
652 2 2 18 15 574 577 231
653 2 2 18 15 195 575 447
654 2 2 18 15 575 578 447
655 2 2 18 15 575 231 578
656 2 2 18 15 447 578 138
657 2 2 18 15 97 579 581
658 2 2 18 15 579 580 581
659 2 2 18 15 579 232 580
660 2 2 18 15 581 580 234
661 2 2 18 15 232 582 580
662 2 2 18 15 582 583 580
663 2 2 18 15 582 233 583
664 2 2 18 15 580 583 234
665 2 2 18 15 232 584 582
666 2 2 18 15 584 585 582
667 2 2 18 15 584 147 585
668 2 2 18 15 582 585 233
669 2 2 18 15 234 583 587
670 2 2 18 15 583 586 587
671 2 2 18 15 583 233 586
672 2 2 18 15 587 586 123
673 2 2 18 15 70 588 590
674 2 2 18 15 588 589 590
675 2 2 18 15 588 235 589
676 2 2 18 15 590 589 237
677 2 2 18 15 235 591 589
678 2 2 18 15 591 592 589
679 2 2 18 15 591 236 592
680 2 2 18 15 589 592 237
681 2 2 18 15 235 593 591
682 2 2 18 15 593 594 591
683 2 2 18 15 593 146 594
684 2 2 18 15 591 594 236
685 2 2 18 15 237 592 596
686 2 2 18 15 592 595 596
687 2 2 18 15 592 236 595
688 2 2 18 15 596 595 142
689 2 2 18 15 77 597 599
690 2 2 18 15 597 598 599
691 2 2 18 15 597 238 598
692 2 2 18 15 599 598 240
693 2 2 18 15 238 600 598
694 2 2 18 15 600 601 598
695 2 2 18 15 600 239 601
696 2 2 18 15 598 601 240
697 2 2 18 15 238 602 600
698 2 2 18 15 602 603 600
699 2 2 18 15 602 145 603
700 2 2 18 15 600 603 239
701 2 2 18 15 240 601 605
702 2 2 18 15 601 604 605
703 2 2 18 15 601 239 604
704 2 2 18 15 605 604 143
705 2 2 18 15 118 407 403
706 2 2 18 15 407 606 403
707 2 2 18 15 407 187 606
708 2 2 18 15 403 606 184
709 2 2 18 15 187 607 606
710 2 2 18 15 607 608 606
711 2 2 18 15 607 233 608
712 2 2 18 15 606 608 184
713 2 2 18 15 187 412 607
714 2 2 18 15 412 586 607
715 2 2 18 15 412 123 586
716 2 2 18 15 607 586 233
717 2 2 18 15 184 608 404
718 2 2 18 15 608 585 404
719 2 2 18 15 608 233 585
720 2 2 18 15 404 585 147
721 2 2 18 15 122 609 545
722 2 2 18 15 609 610 545
723 2 2 18 15 609 241 610
724 2 2 18 15 545 610 222
725 2 2 18 15 241 611 610
726 2 2 18 15 611 612 610
727 2 2 18 15 611 236 612
728 2 2 18 15 610 612 222
729 2 2 18 15 241 613 611
730 2 2 18 15 613 595 611
731 2 2 18 15 613 142 595
732 2 2 18 15 611 595 236
733 2 2 18 15 222 612 546
734 2 2 18 15 612 594 546
735 2 2 18 15 612 236 594
736 2 2 18 15 546 594 146
737 2 2 18 15 121 614 538
738 2 2 18 15 614 615 538
739 2 2 18 15 614 242 615
740 2 2 18 15 538 615 220
741 2 2 18 15 242 616 615
742 2 2 18 15 616 617 615
743 2 2 18 15 616 239 617
744 2 2 18 15 615 617 220
745 2 2 18 15 242 618 616
746 2 2 18 15 618 604 616
747 2 2 18 15 618 143 604
748 2 2 18 15 616 604 239
749 2 2 18 15 220 617 539
750 2 2 18 15 617 603 539
751 2 2 18 15 617 239 603
752 2 2 18 15 539 603 145
753 2 2 18 15 85 438 86
754 2 2 18 15 438 619 86
755 2 2 18 15 438 194 619
756 2 2 18 15 86 619 87
757 2 2 18 15 194 620 619
758 2 2 18 15 620 621 619
759 2 2 18 15 620 188 621
760 2 2 18 15 619 621 87
761 2 2 18 15 194 441 620
762 2 2 18 15 441 417 620
763 2 2 18 15 441 128 417
764 2 2 18 15 620 417 188
765 2 2 18 15 87 621 88
766 2 2 18 15 621 413 88
767 2 2 18 15 621 188 413
768 2 2 18 15 88 413 89
769 2 2 18 15 117 622 624
770 2 2 18 15 622 623 624
771 2 2 18 15 622 243 623
772 2 2 18 15 624 623 245
773 2 2 18 15 243 625 623
774 2 2 18 15 625 626 623
775 2 2 18 15 625 244 626
776 2 2 18 15 623 626 245
777 2 2 18 15 243 627 625
778 2 2 18 15 627 628 625
779 2 2 18 15 627 150 628
780 2 2 18 15 625 628 244
781 2 2 18 15 245 626 630
782 2 2 18 15 626 629 630
783 2 2 18 15 626 244 629
784 2 2 18 15 630 629 127
785 2 2 18 15 58 631 633
786 2 2 18 15 631 632 633
787 2 2 18 15 631 246 632
788 2 2 18 15 633 632 247
789 2 2 18 15 246 634 632
790 2 2 18 15 634 635 632
791 2 2 18 15 634 231 635
792 2 2 18 15 632 635 247
793 2 2 18 15 246 636 634
794 2 2 18 15 636 578 634
795 2 2 18 15 636 138 578
796 2 2 18 15 634 578 231
797 2 2 18 15 247 635 637
798 2 2 18 15 635 577 637
799 2 2 18 15 635 231 577
800 2 2 18 15 637 577 127
801 2 2 18 15 50 638 640
802 2 2 18 15 638 639 640
803 2 2 18 15 638 248 639
804 2 2 18 15 640 639 250
805 2 2 18 15 248 641 639
806 2 2 18 15 641 642 639
807 2 2 18 15 641 249 642
808 2 2 18 15 639 642 250
809 2 2 18 15 248 643 641
810 2 2 18 15 643 644 641
811 2 2 18 15 643 141 644
812 2 2 18 15 641 644 249
813 2 2 18 15 250 642 646
814 2 2 18 15 642 645 646
815 2 2 18 15 642 249 645
816 2 2 18 15 646 645 126
817 2 2 18 15 97 581 648
818 2 2 18 15 581 647 648
819 2 2 18 15 581 234 647
820 2 2 18 15 648 647 251
821 2 2 18 15 234 649 647
822 2 2 18 15 649 650 647
823 2 2 18 15 649 214 650
824 2 2 18 15 647 650 251
825 2 2 18 15 234 587 649
826 2 2 18 15 587 518 649
827 2 2 18 15 587 123 518
828 2 2 18 15 649 518 214
829 2 2 18 15 251 650 651
830 2 2 18 15 650 517 651
831 2 2 18 15 650 214 517
832 2 2 18 15 651 517 135
833 2 2 18 15 116 652 654
834 2 2 18 15 652 653 654
835 2 2 18 15 652 252 653
836 2 2 18 15 654 653 254
837 2 2 18 15 252 655 653
838 2 2 18 15 655 656 653
839 2 2 18 15 655 253 656
840 2 2 18 15 653 656 254
841 2 2 18 15 252 657 655
842 2 2 18 15 657 658 655
843 2 2 18 15 657 124 658
844 2 2 18 15 655 658 253
845 2 2 18 15 254 656 660
846 2 2 18 15 656 659 660
847 2 2 18 15 656 253 659
848 2 2 18 15 660 659 136
849 2 2 18 15 114 528 520
850 2 2 18 15 528 661 520
851 2 2 18 15 528 219 661
852 2 2 18 15 520 661 216
853 2 2 18 15 219 662 661
854 2 2 18 15 662 663 661
855 2 2 18 15 662 255 663
856 2 2 18 15 661 663 216
857 2 2 18 15 219 533 662
858 2 2 18 15 533 664 662
859 2 2 18 15 533 137 664
860 2 2 18 15 662 664 255
861 2 2 18 15 216 663 524
862 2 2 18 15 663 665 524
863 2 2 18 15 663 255 665
864 2 2 18 15 524 665 125
865 2 2 18 15 93 482 94
866 2 2 18 15 482 666 94
867 2 2 18 15 482 207 666
868 2 2 18 15 94 666 95
869 2 2 18 15 207 667 666
870 2 2 18 15 667 668 666
871 2 2 18 15 667 232 668
872 2 2 18 15 666 668 95
873 2 2 18 15 207 481 667
874 2 2 18 15 481 584 667
875 2 2 18 15 481 147 584
876 2 2 18 15 667 584 232
877 2 2 18 15 95 668 96
878 2 2 18 15 668 579 96
879 2 2 18 15 668 232 579
880 2 2 18 15 96 579 97
881 2 2 18 15 101 669 332
882 2 2 18 15 669 670 332
883 2 2 18 15 669 256 670
884 2 2 18 15 332 670 162
885 2 2 18 15 256 671 670
886 2 2 18 15 671 672 670
887 2 2 18 15 671 217 672
888 2 2 18 15 670 672 162
889 2 2 18 15 256 673 671
890 2 2 18 15 673 526 671
891 2 2 18 15 673 135 526
892 2 2 18 15 671 526 217
893 2 2 18 15 162 672 328
894 2 2 18 15 672 525 328
895 2 2 18 15 672 217 525
896 2 2 18 15 328 525 125
897 2 2 18 15 116 674 652
898 2 2 18 15 674 675 652
899 2 2 18 15 674 257 675
900 2 2 18 15 652 675 252
901 2 2 18 15 257 676 675
902 2 2 18 15 676 677 675
903 2 2 18 15 676 164 677
904 2 2 18 15 675 677 252
905 2 2 18 15 257 678 676
906 2 2 18 15 678 334 676
907 2 2 18 15 678 133 334
908 2 2 18 15 676 334 164
909 2 2 18 15 252 677 657
910 2 2 18 15 677 339 657
911 2 2 18 15 677 164 339
912 2 2 18 15 657 339 124
913 2 2 18 15 115 679 681
914 2 2 18 15 679 680 681
915 2 2 18 15 679 258 680
916 2 2 18 15 681 680 259
917 2 2 18 15 258 682 680
918 2 2 18 15 682 683 680
919 2 2 18 15 682 161 683
920 2 2 18 15 680 683 259
921 2 2 18 15 258 684 682
922 2 2 18 15 684 331 682
923 2 2 18 15 684 134 331
924 2 2 18 15 682 331 161
925 2 2 18 15 259 683 685
926 2 2 18 15 683 326 685
927 2 2 18 15 683 161 326
928 2 2 18 15 685 326 125
929 2 2 18 15 114 513 687
930 2 2 18 15 513 686 687
931 2 2 18 15 513 215 686
932 2 2 18 15 687 686 260
933 2 2 18 15 215 688 686
934 2 2 18 15 688 689 686
935 2 2 18 15 688 186 689
936 2 2 18 15 686 689 260
937 2 2 18 15 215 519 688
938 2 2 18 15 519 411 688
939 2 2 18 15 519 123 411
940 2 2 18 15 688 411 186
941 2 2 18 15 260 689 690
942 2 2 18 15 689 410 690
943 2 2 18 15 689 186 410
944 2 2 18 15 690 410 139
945 2 2 18 15 46 691 337
946 2 2 18 15 691 692 337
947 2 2 18 15 691 261 692
948 2 2 18 15 337 692 163
949 2 2 18 15 261 693 692
950 2 2 18 15 693 694 692
951 2 2 18 15 693 199 694
952 2 2 18 15 692 694 163
953 2 2 18 15 261 695 693
954 2 2 18 15 695 458 693
955 2 2 18 15 695 144 458
956 2 2 18 15 693 458 199
957 2 2 18 15 163 694 338
958 2 2 18 15 694 457 338
959 2 2 18 15 694 199 457
960 2 2 18 15 338 457 124
961 2 2 18 15 117 696 622
962 2 2 18 15 696 697 622
963 2 2 18 15 696 262 697
964 2 2 18 15 622 697 243
965 2 2 18 15 262 698 697
966 2 2 18 15 698 699 697
967 2 2 18 15 698 263 699
968 2 2 18 15 697 699 243
969 2 2 18 15 262 700 698
970 2 2 18 15 700 701 698
971 2 2 18 15 700 141 701
972 2 2 18 15 698 701 263
973 2 2 18 15 243 699 627
974 2 2 18 15 699 702 627
975 2 2 18 15 699 263 702
976 2 2 18 15 627 702 150
977 2 2 18 15 113 368 451
978 2 2 18 15 368 703 451
979 2 2 18 15 368 172 703
980 2 2 18 15 451 703 198
981 2 2 18 15 172 704 703
982 2 2 18 15 704 705 703
983 2 2 18 15 704 253 705
984 2 2 18 15 703 705 198
985 2 2 18 15 172 363 704
986 2 2 18 15 363 659 704
987 2 2 18 15 363 136 659
988 2 2 18 15 704 659 253
989 2 2 18 15 198 705 456
990 2 2 18 15 705 658 456
991 2 2 18 15 705 253 658
992 2 2 18 15 456 658 124
993 2 2 18 15 115 681 707
994 2 2 18 15 681 706 707
995 2 2 18 15 681 259 706
996 2 2 18 15 707 706 264
997 2 2 18 15 259 708 706
998 2 2 18 15 708 709 706
999 2 2 18 15 708 255 709
1000 2 2 18 15 706 709 264
1001 2 2 18 15 259 685 708
1002 2 2 18 15 685 665 708
1003 2 2 18 15 685 125 665
1004 2 2 18 15 708 665 255
1005 2 2 18 15 264 709 710
1006 2 2 18 15 709 664 710
1007 2 2 18 15 709 255 664
1008 2 2 18 15 710 664 137
1009 2 2 18 15 66 67 318
1010 2 2 18 15 67 711 318
1011 2 2 18 15 67 68 711
1012 2 2 18 15 318 711 158
1013 2 2 18 15 68 712 711
1014 2 2 18 15 712 713 711
1015 2 2 18 15 712 237 713
1016 2 2 18 15 711 713 158
1017 2 2 18 15 68 69 712
1018 2 2 18 15 69 590 712
1019 2 2 18 15 69 70 590
1020 2 2 18 15 712 590 237
1021 2 2 18 15 158 713 314
1022 2 2 18 15 713 596 314
1023 2 2 18 15 713 237 596
1024 2 2 18 15 314 596 142
1025 2 2 18 15 77 599 78
1026 2 2 18 15 599 714 78
1027 2 2 18 15 599 240 714
1028 2 2 18 15 78 714 79
1029 2 2 18 15 240 715 714
1030 2 2 18 15 715 716 714
1031 2 2 18 15 715 159 716
1032 2 2 18 15 714 716 79
1033 2 2 18 15 240 605 715
1034 2 2 18 15 605 323 715
1035 2 2 18 15 605 143 323
1036 2 2 18 15 715 323 159
1037 2 2 18 15 79 716 80
1038 2 2 18 15 716 319 80
1039 2 2 18 15 716 159 319
1040 2 2 18 15 80 319 81
1041 2 2 18 15 58 59 631
1042 2 2 18 15 59 717 631
1043 2 2 18 15 59 60 717
1044 2 2 18 15 631 717 246
1045 2 2 18 15 60 718 717
1046 2 2 18 15 718 719 717
1047 2 2 18 15 718 212 719
1048 2 2 18 15 717 719 246
1049 2 2 18 15 60 61 718
1050 2 2 18 15 61 507 718
1051 2 2 18 15 61 62 507
1052 2 2 18 15 718 507 212
1053 2 2 18 15 246 719 636
1054 2 2 18 15 719 510 636
1055 2 2 18 15 719 212 510
1056 2 2 18 15 636 510 138
1057 2 2 18 15 50 51 638
1058 2 2 18 15 51 720 638
1059 2 2 18 15 51 52 720
1060 2 2 18 15 638 720 248
1061 2 2 18 15 52 721 720
1062 2 2 18 15 721 722 720
1063 2 2 18 15 721 265 722
1064 2 2 18 15 720 722 248
1065 2 2 18 15 52 53 721
1066 2 2 18 15 53 723 721
1067 2 2 18 15 53 54 723
1068 2 2 18 15 721 723 265
1069 2 2 18 15 248 722 643
1070 2 2 18 15 722 724 643
1071 2 2 18 15 722 265 724
1072 2 2 18 15 643 724 141
1073 2 2 18 15 117 624 354
1074 2 2 18 15 624 725 354
1075 2 2 18 15 624 245 725
1076 2 2 18 15 354 725 169
1077 2 2 18 15 245 726 725
1078 2 2 18 15 726 727 725
1079 2 2 18 15 726 266 727
1080 2 2 18 15 725 727 169
1081 2 2 18 15 245 630 726
1082 2 2 18 15 630 728 726
1083 2 2 18 15 630 127 728
1084 2 2 18 15 726 728 266
1085 2 2 18 15 169 727 359
1086 2 2 18 15 727 729 359
1087 2 2 18 15 727 266 729
1088 2 2 18 15 359 729 139
1089 2 2 18 15 114 687 572
1090 2 2 18 15 687 730 572
1091 2 2 18 15 687 260 730
1092 2 2 18 15 572 730 230
1093 2 2 18 15 260 731 730
1094 2 2 18 15 731 732 730
1095 2 2 18 15 731 266 732
1096 2 2 18 15 730 732 230
1097 2 2 18 15 260 690 731
1098 2 2 18 15 690 729 731
1099 2 2 18 15 690 139 729
1100 2 2 18 15 731 729 266
1101 2 2 18 15 230 732 576
1102 2 2 18 15 732 728 576
1103 2 2 18 15 732 266 728
1104 2 2 18 15 576 728 127
1105 2 2 18 15 113 494 488
1106 2 2 18 15 494 733 488
1107 2 2 18 15 494 211 733
1108 2 2 18 15 488 733 209
1109 2 2 18 15 211 734 733
1110 2 2 18 15 734 735 733
1111 2 2 18 15 734 267 735
1112 2 2 18 15 733 735 209
1113 2 2 18 15 211 499 734
1114 2 2 18 15 499 736 734
1115 2 2 18 15 499 126 736
1116 2 2 18 15 734 736 267
1117 2 2 18 15 209 735 492
1118 2 2 18 15 735 737 492
1119 2 2 18 15 735 267 737
1120 2 2 18 15 492 737 140
1121 2 2 18 15 117 431 739
1122 2 2 18 15 431 738 739
1123 2 2 18 15 431 193 738
1124 2 2 18 15 739 738 268
1125 2 2 18 15 193 740 738
1126 2 2 18 15 740 741 738
1127 2 2 18 15 740 267 741
1128 2 2 18 15 738 741 268
1129 2 2 18 15 193 436 740
1130 2 2 18 15 436 737 740
1131 2 2 18 15 436 140 737
1132 2 2 18 15 740 737 267
1133 2 2 18 15 268 741 742
1134 2 2 18 15 741 736 742
1135 2 2 18 15 741 267 736
1136 2 2 18 15 742 736 126
1137 2 2 18 15 116 743 745
1138 2 2 18 15 743 744 745
1139 2 2 18 15 743 269 744
1140 2 2 18 15 745 744 270
1141 2 2 18 15 269 746 744
1142 2 2 18 15 746 747 744
1143 2 2 18 15 746 202 747
1144 2 2 18 15 744 747 270
1145 2 2 18 15 269 748 746
1146 2 2 18 15 748 467 746
1147 2 2 18 15 748 132 467
1148 2 2 18 15 746 467 202
1149 2 2 18 15 270 747 749
1150 2 2 18 15 747 466 749
1151 2 2 18 15 747 202 466
1152 2 2 18 15 749 466 130
1153 2 2 18 15 115 750 752
1154 2 2 18 15 750 751 752
1155 2 2 18 15 750 271 751
1156 2 2 18 15 752 751 272
1157 2 2 18 15 271 753 751
1158 2 2 18 15 753 754 751
1159 2 2 18 15 753 205 754
1160 2 2 18 15 751 754 272
1161 2 2 18 15 271 755 753
1162 2 2 18 15 755 476 753
1163 2 2 18 15 755 131 476
1164 2 2 18 15 753 476 205
1165 2 2 18 15 272 754 756
1166 2 2 18 15 754 475 756
1167 2 2 18 15 754 205 475
1168 2 2 18 15 756 475 129
1169 2 2 18 15 50 640 758
1170 2 2 18 15 640 757 758
1171 2 2 18 15 640 250 757
1172 2 2 18 15 758 757 273
1173 2 2 18 15 250 759 757
1174 2 2 18 15 759 760 757
1175 2 2 18 15 759 210 760
1176 2 2 18 15 757 760 273
1177 2 2 18 15 250 646 759
1178 2 2 18 15 646 498 759
1179 2 2 18 15 646 126 498
1180 2 2 18 15 759 498 210
1181 2 2 18 15 273 760 761
1182 2 2 18 15 760 497 761
1183 2 2 18 15 760 210 497
1184 2 2 18 15 761 497 144
1185 2 2 18 15 115 752 679
1186 2 2 18 15 752 762 679
1187 2 2 18 15 752 272 762
1188 2 2 18 15 679 762 258
1189 2 2 18 15 272 763 762
1190 2 2 18 15 763 764 762
1191 2 2 18 15 763 228 764
1192 2 2 18 15 762 764 258
1193 2 2 18 15 272 756 763
1194 2 2 18 15 756 564 763
1195 2 2 18 15 756 129 564
1196 2 2 18 15 763 564 228
1197 2 2 18 15 258 764 684
1198 2 2 18 15 764 563 684
1199 2 2 18 15 764 228 563
1200 2 2 18 15 684 563 134
1201 2 2 18 15 116 745 674
1202 2 2 18 15 745 765 674
1203 2 2 18 15 745 270 765
1204 2 2 18 15 674 765 257
1205 2 2 18 15 270 766 765
1206 2 2 18 15 766 767 765
1207 2 2 18 15 766 225 767
1208 2 2 18 15 765 767 257
1209 2 2 18 15 270 749 766
1210 2 2 18 15 749 555 766
1211 2 2 18 15 749 130 555
1212 2 2 18 15 766 555 225
1213 2 2 18 15 257 767 678
1214 2 2 18 15 767 554 678
1215 2 2 18 15 767 225 554
1216 2 2 18 15 678 554 133
1217 2 2 18 15 115 768 750
1218 2 2 18 15 768 769 750
1219 2 2 18 15 768 274 769
1220 2 2 18 15 750 769 271
1221 2 2 18 15 274 770 769
1222 2 2 18 15 770 771 769
1223 2 2 18 15 770 275 771
1224 2 2 18 15 769 771 271
1225 2 2 18 15 274 772 770
1226 2 2 18 15 772 773 770
1227 2 2 18 15 772 148 773
1228 2 2 18 15 770 773 275
1229 2 2 18 15 271 771 755
1230 2 2 18 15 771 774 755
1231 2 2 18 15 771 275 774
1232 2 2 18 15 755 774 131
1233 2 2 18 15 122 386 776
1234 2 2 18 15 386 775 776
1235 2 2 18 15 386 178 775
1236 2 2 18 15 776 775 276
1237 2 2 18 15 178 777 775
1238 2 2 18 15 777 778 775
1239 2 2 18 15 777 275 778
1240 2 2 18 15 775 778 276
1241 2 2 18 15 178 385 777
1242 2 2 18 15 385 774 777
1243 2 2 18 15 385 131 774
1244 2 2 18 15 777 774 275
1245 2 2 18 15 276 778 779
1246 2 2 18 15 778 773 779
1247 2 2 18 15 778 275 773
1248 2 2 18 15 779 773 148
1249 2 2 18 15 116 780 743
1250 2 2 18 15 780 781 743
1251 2 2 18 15 780 277 781
1252 2 2 18 15 743 781 269
1253 2 2 18 15 277 782 781
1254 2 2 18 15 782 783 781
1255 2 2 18 15 782 278 783
1256 2 2 18 15 781 783 269
1257 2 2 18 15 277 784 782
1258 2 2 18 15 784 785 782
1259 2 2 18 15 784 149 785
1260 2 2 18 15 782 785 278
1261 2 2 18 15 269 783 748
1262 2 2 18 15 783 786 748
1263 2 2 18 15 783 278 786
1264 2 2 18 15 748 786 132
1265 2 2 18 15 121 395 788
1266 2 2 18 15 395 787 788
1267 2 2 18 15 395 181 787
1268 2 2 18 15 788 787 279
1269 2 2 18 15 181 789 787
1270 2 2 18 15 789 790 787
1271 2 2 18 15 789 278 790
1272 2 2 18 15 787 790 279
1273 2 2 18 15 181 394 789
1274 2 2 18 15 394 786 789
1275 2 2 18 15 394 132 786
1276 2 2 18 15 789 786 278
1277 2 2 18 15 279 790 791
1278 2 2 18 15 790 785 791
1279 2 2 18 15 790 278 785
1280 2 2 18 15 791 785 149
1281 2 2 18 15 117 739 696
1282 2 2 18 15 739 792 696
1283 2 2 18 15 739 268 792
1284 2 2 18 15 696 792 262
1285 2 2 18 15 268 793 792
1286 2 2 18 15 793 794 792
1287 2 2 18 15 793 249 794
1288 2 2 18 15 792 794 262
1289 2 2 18 15 268 742 793
1290 2 2 18 15 742 645 793
1291 2 2 18 15 742 126 645
1292 2 2 18 15 793 645 249
1293 2 2 18 15 262 794 700
1294 2 2 18 15 794 644 700
1295 2 2 18 15 794 249 644
1296 2 2 18 15 700 644 141
1297 2 2 18 15 58 633 796
1298 2 2 18 15 633 795 796
1299 2 2 18 15 633 247 795
1300 2 2 18 15 796 795 280
1301 2 2 18 15 247 797 795
1302 2 2 18 15 797 798 795
1303 2 2 18 15 797 244 798
1304 2 2 18 15 795 798 280
1305 2 2 18 15 247 637 797
1306 2 2 18 15 637 629 797
1307 2 2 18 15 637 127 629
1308 2 2 18 15 797 629 244
1309 2 2 18 15 280 798 799
1310 2 2 18 15 798 628 799
1311 2 2 18 15 798 244 628
1312 2 2 18 15 799 628 150
1313 2 2 18 15 97 648 98
1314 2 2 18 15 648 800 98
1315 2 2 18 15 648 251 800
1316 2 2 18 15 98 800 99
1317 2 2 18 15 251 801 800
1318 2 2 18 15 801 802 800
1319 2 2 18 15 801 256 802
1320 2 2 18 15 800 802 99
1321 2 2 18 15 251 651 801
1322 2 2 18 15 651 673 801
1323 2 2 18 15 651 135 673
1324 2 2 18 15 801 673 256
1325 2 2 18 15 99 802 100
1326 2 2 18 15 802 669 100
1327 2 2 18 15 802 256 669
1328 2 2 18 15 100 669 101
1329 2 2 18 15 46 47 691
1330 2 2 18 15 47 803 691
1331 2 2 18 15 47 48 803
1332 2 2 18 15 691 803 261
1333 2 2 18 15 48 804 803
1334 2 2 18 15 804 805 803
1335 2 2 18 15 804 273 805
1336 2 2 18 15 803 805 261
1337 2 2 18 15 48 49 804
1338 2 2 18 15 49 758 804
1339 2 2 18 15 49 50 758
1340 2 2 18 15 804 758 273
1341 2 2 18 15 261 805 695
1342 2 2 18 15 805 761 695
1343 2 2 18 15 805 273 761
1344 2 2 18 15 695 761 144
1345 2 2 18 15 2 806 74
1346 2 2 18 15 806 807 74
1347 2 2 18 15 806 281 807
1348 2 2 18 15 74 807 75
1349 2 2 18 15 281 808 807
1350 2 2 18 15 808 809 807
1351 2 2 18 15 808 238 809
1352 2 2 18 15 807 809 75
1353 2 2 18 15 281 810 808
1354 2 2 18 15 810 602 808
1355 2 2 18 15 810 145 602
1356 2 2 18 15 808 602 238
1357 2 2 18 15 75 809 76
1358 2 2 18 15 809 597 76
1359 2 2 18 15 809 238 597
1360 2 2 18 15 76 597 77
1361 2 2 18 15 2 20 806
1362 2 2 18 15 20 811 806
1363 2 2 18 15 20 21 811
1364 2 2 18 15 806 811 281
1365 2 2 18 15 21 812 811
1366 2 2 18 15 812 813 811
1367 2 2 18 15 812 221 813
1368 2 2 18 15 811 813 281
1369 2 2 18 15 21 22 812
1370 2 2 18 15 22 535 812
1371 2 2 18 15 22 23 535
1372 2 2 18 15 812 535 221
1373 2 2 18 15 281 813 810
1374 2 2 18 15 813 540 810
1375 2 2 18 15 813 221 540
1376 2 2 18 15 810 540 145
1377 2 2 18 15 4 814 73
1378 2 2 18 15 814 815 73
1379 2 2 18 15 814 282 815
1380 2 2 18 15 73 815 72
1381 2 2 18 15 282 816 815
1382 2 2 18 15 816 817 815
1383 2 2 18 15 816 235 817
1384 2 2 18 15 815 817 72
1385 2 2 18 15 282 818 816
1386 2 2 18 15 818 593 816
1387 2 2 18 15 818 146 593
1388 2 2 18 15 816 593 235
1389 2 2 18 15 72 817 71
1390 2 2 18 15 817 588 71
1391 2 2 18 15 817 235 588
1392 2 2 18 15 71 588 70
1393 2 2 18 15 4 5 814
1394 2 2 18 15 5 819 814
1395 2 2 18 15 5 6 819
1396 2 2 18 15 814 819 282
1397 2 2 18 15 6 820 819
1398 2 2 18 15 820 821 819
1399 2 2 18 15 820 223 821
1400 2 2 18 15 819 821 282
1401 2 2 18 15 6 7 820
1402 2 2 18 15 7 542 820
1403 2 2 18 15 7 8 542
1404 2 2 18 15 820 542 223
1405 2 2 18 15 282 821 818
1406 2 2 18 15 821 547 818
1407 2 2 18 15 821 223 547
1408 2 2 18 15 818 547 146
1409 2 2 18 15 16 822 469
1410 2 2 18 15 822 823 469
1411 2 2 18 15 822 283 823
1412 2 2 18 15 469 823 204
1413 2 2 18 15 283 824 823
1414 2 2 18 15 824 825 823
1415 2 2 18 15 824 284 825
1416 2 2 18 15 823 825 204
1417 2 2 18 15 283 826 824
1418 2 2 18 15 826 827 824
1419 2 2 18 15 826 152 827
1420 2 2 18 15 824 827 284
1421 2 2 18 15 204 825 474
1422 2 2 18 15 825 828 474
1423 2 2 18 15 825 284 828
1424 2 2 18 15 474 828 129
1425 2 2 18 15 109 559 830
1426 2 2 18 15 559 829 830
1427 2 2 18 15 559 229 829
1428 2 2 18 15 830 829 285
1429 2 2 18 15 229 831 829
1430 2 2 18 15 831 832 829
1431 2 2 18 15 831 284 832
1432 2 2 18 15 829 832 285
1433 2 2 18 15 229 565 831
1434 2 2 18 15 565 828 831
1435 2 2 18 15 565 129 828
1436 2 2 18 15 831 828 284
1437 2 2 18 15 285 832 833
1438 2 2 18 15 832 827 833
1439 2 2 18 15 832 284 827
1440 2 2 18 15 833 827 152
1441 2 2 18 15 38 550 835
1442 2 2 18 15 550 834 835
1443 2 2 18 15 550 226 834
1444 2 2 18 15 835 834 287
1445 2 2 18 15 226 836 834
1446 2 2 18 15 836 837 834
1447 2 2 18 15 836 286 837
1448 2 2 18 15 834 837 287
1449 2 2 18 15 226 556 836
1450 2 2 18 15 556 838 836
1451 2 2 18 15 556 130 838
1452 2 2 18 15 836 838 286
1453 2 2 18 15 287 837 840
1454 2 2 18 15 837 839 840
1455 2 2 18 15 837 286 839
1456 2 2 18 15 840 839 151
1457 2 2 18 15 31 841 460
1458 2 2 18 15 841 842 460
1459 2 2 18 15 841 288 842
1460 2 2 18 15 460 842 201
1461 2 2 18 15 288 843 842
1462 2 2 18 15 843 844 842
1463 2 2 18 15 843 286 844
1464 2 2 18 15 842 844 201
1465 2 2 18 15 288 845 843
1466 2 2 18 15 845 839 843
1467 2 2 18 15 845 151 839
1468 2 2 18 15 843 839 286
1469 2 2 18 15 201 844 465
1470 2 2 18 15 844 838 465
1471 2 2 18 15 844 286 838
1472 2 2 18 15 465 838 130
1473 2 2 18 15 116 654 780
1474 2 2 18 15 654 846 780
1475 2 2 18 15 654 254 846
1476 2 2 18 15 780 846 277
1477 2 2 18 15 254 847 846
1478 2 2 18 15 847 848 846
1479 2 2 18 15 847 289 848
1480 2 2 18 15 846 848 277
1481 2 2 18 15 254 660 847
1482 2 2 18 15 660 849 847
1483 2 2 18 15 660 136 849
1484 2 2 18 15 847 849 289
1485 2 2 18 15 277 848 784
1486 2 2 18 15 848 850 784
1487 2 2 18 15 848 289 850
1488 2 2 18 15 784 850 149
1489 2 2 18 15 1 851 34
1490 2 2 18 15 851 852 34
1491 2 2 18 15 851 290 852
1492 2 2 18 15 34 852 33
1493 2 2 18 15 290 853 852
1494 2 2 18 15 853 854 852
1495 2 2 18 15 853 288 854
1496 2 2 18 15 852 854 33
1497 2 2 18 15 290 855 853
1498 2 2 18 15 855 845 853
1499 2 2 18 15 855 151 845
1500 2 2 18 15 853 845 288
1501 2 2 18 15 33 854 32
1502 2 2 18 15 854 841 32
1503 2 2 18 15 854 288 841
1504 2 2 18 15 32 841 31
1505 2 2 18 15 3 856 19
1506 2 2 18 15 856 857 19
1507 2 2 18 15 856 291 857
1508 2 2 18 15 19 857 18
1509 2 2 18 15 291 858 857
1510 2 2 18 15 858 859 857
1511 2 2 18 15 858 283 859
1512 2 2 18 15 857 859 18
1513 2 2 18 15 291 860 858
1514 2 2 18 15 860 826 858
1515 2 2 18 15 860 152 826
1516 2 2 18 15 858 826 283
1517 2 2 18 15 18 859 17
1518 2 2 18 15 859 822 17
1519 2 2 18 15 859 283 822
1520 2 2 18 15 17 822 16
1521 2 2 18 15 3 112 856
1522 2 2 18 15 112 861 856
1523 2 2 18 15 112 111 861
1524 2 2 18 15 856 861 291
1525 2 2 18 15 111 862 861
1526 2 2 18 15 862 863 861
1527 2 2 18 15 862 285 863
1528 2 2 18 15 861 863 291
1529 2 2 18 15 111 110 862
1530 2 2 18 15 110 830 862
1531 2 2 18 15 110 109 830
1532 2 2 18 15 862 830 285
1533 2 2 18 15 291 863 860
1534 2 2 18 15 863 833 860
1535 2 2 18 15 863 285 833
1536 2 2 18 15 860 833 152
1537 2 2 18 15 1 35 851
1538 2 2 18 15 35 864 851
1539 2 2 18 15 35 36 864
1540 2 2 18 15 851 864 290
1541 2 2 18 15 36 865 864
1542 2 2 18 15 865 866 864
1543 2 2 18 15 865 287 866
1544 2 2 18 15 864 866 290
1545 2 2 18 15 36 37 865
1546 2 2 18 15 37 835 865
1547 2 2 18 15 37 38 835
1548 2 2 18 15 865 835 287
1549 2 2 18 15 290 866 855
1550 2 2 18 15 866 840 855
1551 2 2 18 15 866 287 840
1552 2 2 18 15 855 840 151
1553 2 2 18 15 54 55 868
1554 2 2 18 15 55 867 868
1555 2 2 18 15 55 56 867
1556 2 2 18 15 868 867 292
1557 2 2 18 15 56 869 867
1558 2 2 18 15 869 870 867
1559 2 2 18 15 869 280 870
1560 2 2 18 15 867 870 292
1561 2 2 18 15 56 57 869
1562 2 2 18 15 57 796 869
1563 2 2 18 15 57 58 796
1564 2 2 18 15 869 796 280
1565 2 2 18 15 292 870 871
1566 2 2 18 15 870 799 871
1567 2 2 18 15 870 280 799
1568 2 2 18 15 871 799 150
1569 2 2 18 15 119 872 372
1570 2 2 18 15 872 873 372
1571 2 2 18 15 872 293 873
1572 2 2 18 15 372 873 175
1573 2 2 18 15 293 874 873
1574 2 2 18 15 874 875 873
1575 2 2 18 15 874 289 875
1576 2 2 18 15 873 875 175
1577 2 2 18 15 293 876 874
1578 2 2 18 15 876 850 874
1579 2 2 18 15 876 149 850
1580 2 2 18 15 874 850 289
1581 2 2 18 15 175 875 377
1582 2 2 18 15 875 849 377
1583 2 2 18 15 875 289 849
1584 2 2 18 15 377 849 136
1585 2 2 18 15 115 707 768
1586 2 2 18 15 707 877 768
1587 2 2 18 15 707 264 877
1588 2 2 18 15 768 877 274
1589 2 2 18 15 264 878 877
1590 2 2 18 15 878 879 877
1591 2 2 18 15 878 294 879
1592 2 2 18 15 877 879 274
1593 2 2 18 15 264 710 878
1594 2 2 18 15 710 880 878
1595 2 2 18 15 710 137 880
1596 2 2 18 15 878 880 294
1597 2 2 18 15 274 879 772
1598 2 2 18 15 879 881 772
1599 2 2 18 15 879 294 881
1600 2 2 18 15 772 881 148
1601 2 2 18 15 120 882 531
1602 2 2 18 15 882 883 531
1603 2 2 18 15 882 295 883
1604 2 2 18 15 531 883 218
1605 2 2 18 15 295 884 883
1606 2 2 18 15 884 885 883
1607 2 2 18 15 884 294 885
1608 2 2 18 15 883 885 218
1609 2 2 18 15 295 886 884
1610 2 2 18 15 886 881 884
1611 2 2 18 15 886 148 881
1612 2 2 18 15 884 881 294
1613 2 2 18 15 218 885 532
1614 2 2 18 15 885 880 532
1615 2 2 18 15 885 294 880
1616 2 2 18 15 532 880 137
1617 2 2 18 15 54 868 723
1618 2 2 18 15 868 887 723
1619 2 2 18 15 868 292 887
1620 2 2 18 15 723 887 265
1621 2 2 18 15 292 888 887
1622 2 2 18 15 888 889 887
1623 2 2 18 15 888 263 889
1624 2 2 18 15 887 889 265
1625 2 2 18 15 292 871 888
1626 2 2 18 15 871 702 888
1627 2 2 18 15 871 150 702
1628 2 2 18 15 888 702 263
1629 2 2 18 15 265 889 724
1630 2 2 18 15 889 701 724
1631 2 2 18 15 889 263 701
1632 2 2 18 15 724 701 141
1633 2 2 18 15 119 344 872
1634 2 2 18 15 344 890 872
1635 2 2 18 15 344 165 890
1636 2 2 18 15 872 890 293
1637 2 2 18 15 165 891 890
1638 2 2 18 15 891 892 890
1639 2 2 18 15 891 296 892
1640 2 2 18 15 890 892 293
1641 2 2 18 15 165 340 891
1642 2 2 18 15 340 893 891
1643 2 2 18 15 340 143 893
1644 2 2 18 15 891 893 296
1645 2 2 18 15 293 892 876
1646 2 2 18 15 892 894 876
1647 2 2 18 15 892 296 894
1648 2 2 18 15 876 894 149
1649 2 2 18 15 121 788 614
1650 2 2 18 15 788 895 614
1651 2 2 18 15 788 279 895
1652 2 2 18 15 614 895 242
1653 2 2 18 15 279 896 895
1654 2 2 18 15 896 897 895
1655 2 2 18 15 896 296 897
1656 2 2 18 15 895 897 242
1657 2 2 18 15 279 791 896
1658 2 2 18 15 791 894 896
1659 2 2 18 15 791 149 894
1660 2 2 18 15 896 894 296
1661 2 2 18 15 242 897 618
1662 2 2 18 15 897 893 618
1663 2 2 18 15 897 296 893
1664 2 2 18 15 618 893 143
1665 2 2 18 15 122 776 609
1666 2 2 18 15 776 898 609
1667 2 2 18 15 776 276 898
1668 2 2 18 15 609 898 241
1669 2 2 18 15 276 899 898
1670 2 2 18 15 899 900 898
1671 2 2 18 15 899 297 900
1672 2 2 18 15 898 900 241
1673 2 2 18 15 276 779 899
1674 2 2 18 15 779 901 899
1675 2 2 18 15 779 148 901
1676 2 2 18 15 899 901 297
1677 2 2 18 15 241 900 613
1678 2 2 18 15 900 902 613
1679 2 2 18 15 900 297 902
1680 2 2 18 15 613 902 142
1681 2 2 18 15 120 349 882
1682 2 2 18 15 349 903 882
1683 2 2 18 15 349 168 903
1684 2 2 18 15 882 903 295
1685 2 2 18 15 168 904 903
1686 2 2 18 15 904 905 903
1687 2 2 18 15 904 297 905
1688 2 2 18 15 903 905 295
1689 2 2 18 15 168 353 904
1690 2 2 18 15 353 902 904
1691 2 2 18 15 353 142 902
1692 2 2 18 15 904 902 297
1693 2 2 18 15 295 905 886
1694 2 2 18 15 905 901 886
1695 2 2 18 15 905 297 901
1696 2 2 18 15 886 901 148
$EndElements
