// Gmsh project created on Thu Dec  1 17:12:28 2016
Point(1) = {0, 0, 0, 0.1};
Point(2) = {1, 0, 0, 0.1};
Point(3) = {1, 1, 0, 0.1};
Point(4) = {0, 1, 0, 0.1};
Point(5) = {0, 0.3, 0, 0.1};
Point(6) = {0, 0.7, 0, 0.1};
Point(7) = {1, 0.7, 0, 0.1};
Point(8) = {1, 0.3, 0, 0.1};
Line(1) = {1, 2};
Line(2) = {2, 8};
Line(3) = {8, 7};
Line(4) = {7, 3};
Line(5) = {3, 4};
Line(6) = {4, 6};
Line(7) = {6, 5};
Line(8) = {5, 1};
Line(9) = {5, 8};
Line(10) = {6, 7};
Line Loop(11) = {5, 6, 7, 8, 1, 2, 3, 4};
Line Loop(12) = {5, 6, 10, 4};
Plane Surface(13) = {12};
Line Loop(14) = {7, 9, 3, -10};
Plane Surface(15) = {14};
Line Loop(16) = {8, 1, 2, -9};
Plane Surface(17) = {16};
Physical Surface(18) = {15};
Physical Surface(19) = {13, 17};
