Fluid = 0.527777777778
Theta_list:
[1.7791548473905474, 1.6993884748465737, 1.6993884748465737, 1.6234141330942509, 1.6234141330942509, 1.6234141330942509, 1.6234141330942509, 1.6234141330942509, 1.6512223983691299, 1.5981523200219478, 1.5981523200219478, 1.574873040979716, 1.574873040979716, 1.629907966627136, 1.629907966627136, 1.6005564629243891, 1.585837123935679, 1.5249500857493605, 1.594538322569301, 1.489628285234821, 1.489628285234821, 1.6062631950621316, 1.6062631950621316, 1.5345322358373787, 1.5345322358373787, 1.6248075514214988, 1.6248075514214988, 1.5577209487210775, 1.5577209487210775, 1.617857652275593, 1.5697865695660322, 1.6077533920250868, 1.6002933689840557, 1.6002933689840557]
J_list:
[0.9536955803603294, 0.9374565646698765, 0.9331564481640506, 0.9328244853747835, 0.9325690565941067, 0.9322768087316967, 0.9316094500672804, 0.9313169969468402, 0.9312375835450821, 0.9309360974863632, 0.930923836181608, 0.9307480620934316, 0.9295238495664291, 0.9287290404585409, 0.9280252339846006, 0.9274451567020096, 0.9270842730744763, 0.9269542299252299, 0.9264654588071991, 0.9263406843264526, 0.9258865023549]

