<?xml version="1.0"?>
<VTKFile type="Collection" version="0.1">
  <Collection>
    <DataSet timestep="0" part="0" file="alpha_bypass_long_05000000.vtu" />
    <DataSet timestep="1" part="0" file="alpha_bypass_long_05000001.vtu" />
    <DataSet timestep="2" part="0" file="alpha_bypass_long_05000002.vtu" />
    <DataSet timestep="3" part="0" file="alpha_bypass_long_05000003.vtu" />
    <DataSet timestep="4" part="0" file="alpha_bypass_long_05000004.vtu" />
    <DataSet timestep="5" part="0" file="alpha_bypass_long_05000005.vtu" />
    <DataSet timestep="6" part="0" file="alpha_bypass_long_05000006.vtu" />
    <DataSet timestep="7" part="0" file="alpha_bypass_long_05000007.vtu" />
    <DataSet timestep="8" part="0" file="alpha_bypass_long_05000008.vtu" />
    <DataSet timestep="9" part="0" file="alpha_bypass_long_05000009.vtu" />
    <DataSet timestep="10" part="0" file="alpha_bypass_long_05000010.vtu" />
    <DataSet timestep="11" part="0" file="alpha_bypass_long_05000011.vtu" />
  </Collection>
</VTKFile>
