<?xml version="1.0"?>
<VTKFile type="Collection" version="0.1">
  <Collection>
    <DataSet timestep="0" part="0" file="alpha_bypass_long_09000000.vtu" />
    <DataSet timestep="1" part="0" file="alpha_bypass_long_09000001.vtu" />
    <DataSet timestep="2" part="0" file="alpha_bypass_long_09000002.vtu" />
    <DataSet timestep="3" part="0" file="alpha_bypass_long_09000003.vtu" />
    <DataSet timestep="4" part="0" file="alpha_bypass_long_09000004.vtu" />
    <DataSet timestep="5" part="0" file="alpha_bypass_long_09000005.vtu" />
    <DataSet timestep="6" part="0" file="alpha_bypass_long_09000006.vtu" />
    <DataSet timestep="7" part="0" file="alpha_bypass_long_09000007.vtu" />
    <DataSet timestep="8" part="0" file="alpha_bypass_long_09000008.vtu" />
    <DataSet timestep="9" part="0" file="alpha_bypass_long_09000009.vtu" />
    <DataSet timestep="10" part="0" file="alpha_bypass_long_09000010.vtu" />
  </Collection>
</VTKFile>
