<?xml version="1.0"?>
<VTKFile type="Collection" version="0.1">
  <Collection>
    <DataSet timestep="0" part="0" file="alpha_bypass_long_07000000.vtu" />
    <DataSet timestep="1" part="0" file="alpha_bypass_long_07000001.vtu" />
    <DataSet timestep="2" part="0" file="alpha_bypass_long_07000002.vtu" />
    <DataSet timestep="3" part="0" file="alpha_bypass_long_07000003.vtu" />
    <DataSet timestep="4" part="0" file="alpha_bypass_long_07000004.vtu" />
    <DataSet timestep="5" part="0" file="alpha_bypass_long_07000005.vtu" />
    <DataSet timestep="6" part="0" file="alpha_bypass_long_07000006.vtu" />
    <DataSet timestep="7" part="0" file="alpha_bypass_long_07000007.vtu" />
    <DataSet timestep="8" part="0" file="alpha_bypass_long_07000008.vtu" />
    <DataSet timestep="9" part="0" file="alpha_bypass_long_07000009.vtu" />
    <DataSet timestep="10" part="0" file="alpha_bypass_long_07000010.vtu" />
    <DataSet timestep="11" part="0" file="alpha_bypass_long_07000011.vtu" />
  </Collection>
</VTKFile>
