<?xml version="1.0"?>
<VTKFile type="Collection" version="0.1">
  <Collection>
    <DataSet timestep="0" part="0" file="g1000000.vtu" />
    <DataSet timestep="1" part="0" file="g1000001.vtu" />
    <DataSet timestep="2" part="0" file="g1000002.vtu" />
  </Collection>
</VTKFile>
